3
210
 1.00000000e-01     1.37246633e+03     1.91167093e+03     8.99695186e-01
 1.06833667e-01     1.38983789e+03     1.89926320e+03     9.03506183e-01
 1.14134323e-01     1.40630768e+03     1.88717494e+03     9.08570352e-01
 1.21933882e-01     1.41213759e+03     1.88649247e+03     9.08397802e-01
 1.30266437e-01     1.42631638e+03     1.87700525e+03     9.12786465e-01
 1.39168411e-01     1.42609706e+03     1.88263946e+03     9.10908326e-01
 1.48678717e-01     1.42334518e+03     1.89117989e+03     9.06098803e-01
 1.58838925e-01     1.44331877e+03     1.87625528e+03     9.13803868e-01
 1.69693447e-01     1.47153655e+03     1.85383547e+03     9.26050807e-01
 1.81289731e-01     1.48771974e+03     1.84394968e+03     9.31724305e-01
 1.93678467e-01     1.49711768e+03     1.84090308e+03     9.33906764e-01
 2.06913808e-01     1.50460928e+03     1.83998859e+03     9.35029550e-01
 2.21053608e-01     1.51056085e+03     1.84121389e+03     9.35287688e-01
 2.36159675e-01     1.51587630e+03     1.84329826e+03     9.35187917e-01
 2.52298039e-01     1.52063947e+03     1.84645770e+03     9.34807986e-01
 2.69539246e-01     1.52502505e+03     1.85010674e+03     9.34371317e-01
 2.87958660e-01     1.52820478e+03     1.85595997e+03     9.33577989e-01
 3.07636795e-01     1.52988455e+03     1.86135561e+03     9.32205785e-01
 3.28659667e-01     1.52232445e+03     1.88440690e+03     9.29058803e-01
 3.51119173e-01     1.49642892e+03     1.90857931e+03     9.22060543e-01
 3.75113487e-01     1.46384290e+03     1.96987237e+03     9.15900698e-01
 4.00747492e-01     1.42216071e+03     2.01647636e+03     9.07888945e-01
 4.28133240e-01     1.35272255e+03     2.06912782e+03     8.95774666e-01
 4.57390438e-01     1.29250458e+03     2.20273659e+03     8.90805212e-01
 4.88646976e-01     1.27273272e+03     2.17476971e+03     8.85766803e-01
 5.22039481e-01     1.26371894e+03     2.17982606e+03     8.83484706e-01
 5.57713919e-01     1.26587260e+03     2.29613750e+03     8.87428431e-01
 5.95826229e-01     1.26886492e+03     2.24147240e+03     8.83054201e-01
 6.36543007e-01     1.27863737e+03     2.17615382e+03     8.78439305e-01
 6.80042234e-01     1.32478268e+03     2.27425000e+03     8.88463106e-01
 7.26514053e-01     1.37930124e+03     2.21017184e+03     8.92524481e-01
 7.76161601e-01     1.42531797e+03     2.06789182e+03     8.91131343e-01
 8.29201897e-01     1.44992025e+03     2.17091139e+03     8.98052966e-01
 8.85866790e-01     1.42300977e+03     2.28358605e+03     8.95382922e-01
 9.46403974e-01     1.36342750e+03     2.19324882e+03     8.74782061e-01
 1.01107807e+00     1.29211470e+03     2.19724601e+03     8.52861805e-01
 1.08017177e+00     1.22492538e+03     2.49856203e+03     8.50688846e-01
 1.15398711e+00     1.17499599e+03     2.78636134e+03     8.50261846e-01
 1.23284674e+00     1.12418667e+03     2.73097505e+03     8.36897659e-01
 1.31709538e+00     1.11149777e+03     2.44053101e+03     8.14237488e-01
 1.40710128e+00     1.14098058e+03     2.27360131e+03     8.05188627e-01
 1.50325789e+00     1.16621999e+03     2.40458207e+03     8.17369975e-01
 1.60598553e+00     1.15076725e+03     2.77067883e+03     8.34067206e-01
 1.71573322e+00     1.11732119e+03     3.16206586e+03     8.42485247e-01
 1.83298071e+00     1.07948697e+03     3.36977664e+03     8.34953785e-01
 1.95824050e+00     1.04588182e+03     3.26972926e+03     8.07954776e-01
 2.09206013e+00     1.02139308e+03     2.91047488e+03     7.53491169e-01
 2.23502454e+00     1.01235462e+03     2.46797348e+03     6.79916218e-01
 2.38775867e+00     1.03133396e+03     2.23303162e+03     6.00943208e-01
 2.55093014e+00     1.03102800e+03     2.29291667e+03     6.01608437e-01
 2.72525220e+00     1.16259121e+03     2.77321078e+03     6.82673713e-01
 2.91148685e+00     1.97679235e+03     2.56296924e+03     8.80995261e-01
 3.11044815e+00     2.17752590e+03     1.87546830e+03     8.69149233e-01
 3.32300581e+00     1.90387888e+03     1.86105393e+03     6.96270237e-01
 3.55008895e+00     1.19597185e+03     3.05877690e+03     6.06508047e-01
 3.79269019e+00     9.90504428e+02     4.04254078e+03     6.62710259e-01
 4.05186999e+00     9.37990369e+02     4.79705970e+03     7.09965794e-01
 4.32876128e+00     1.00191670e+03     5.12615133e+03     7.31696028e-01
 4.62457440e+00     9.28295216e+02     5.23016764e+03     7.44176209e-01
 4.94060239e+00     8.26003546e+02     5.58123376e+03     7.54948127e-01
 5.27822669e+00     8.38211019e+02     5.30870351e+03     7.53374704e-01
 5.63892310e+00     1.00726821e+03     4.47919719e+03     7.59310429e-01
 6.02426831e+00     1.26479047e+03     3.86199270e+03     7.65763892e-01
 6.43594672e+00     1.23310753e+03     3.83146275e+03     7.56892080e-01
 6.87575786e+00     1.14691014e+03     3.62840564e+03     7.40960853e-01
 7.34562423e+00     9.59625530e+02     3.17846408e+03     7.07464667e-01
 7.84759970e+00     9.37511975e+02     2.51470582e+03     6.81817040e-01
 8.38387850e+00     1.16838117e+03     1.84535303e+03     6.79593686e-01
 8.95680481e+00     1.38492759e+03     1.38358091e+03     6.73504652e-01
 9.56888299e+00     1.64219027e+03     1.25166808e+03     6.50591836e-01
 1.02227886e+01     1.70584750e+03     1.17238069e+03     6.17798678e-01
 1.09213798e+01     1.83625489e+03     1.08884130e+03     5.73608780e-01
 1.16677105e+01     1.97469722e+03     1.19126599e+03     5.29294048e-01
 1.24650430e+01     1.97197138e+03     1.27675160e+03     4.88144003e-01
 1.33168624e+01     1.86493604e+03     1.27879522e+03     4.46122035e-01
 1.42268924e+01     1.65897566e+03     1.17283500e+03     3.97720164e-01
 1.51991108e+01     1.50419737e+03     9.97200222e+02     3.42656923e-01
 1.62377674e+01     1.45867511e+03     8.71996722e+02     2.95123418e-01
 1.73474023e+01     1.33768913e+03     7.65151983e+02     2.55807325e-01
 1.85328659e+01     1.21000494e+03     6.52029781e+02     2.21295510e-01
 1.97993402e+01     1.08426925e+03     5.49415611e+02     1.92309454e-01
 2.11523611e+01     9.22489024e+02     4.33681571e+02     1.65694805e-01
 2.25978429e+01     8.21066152e+02     3.33076761e+02     1.42346536e-01
 2.41421042e+01     7.72434160e+02     2.53189862e+02     1.22265248e-01
 2.57918951e+01     7.67039165e+02     1.98906274e+02     1.05830420e-01
 2.75544272e+01     7.58408213e+02     1.63270785e+02     9.27976591e-02
 2.94374049e+01     7.32483889e+02     1.35631125e+02     8.20026551e-02
 3.14490590e+01     6.55007810e+02     1.09817675e+02     7.29521144e-02
 3.35981829e+01     5.91615056e+02     8.66368253e+01     6.44489266e-02
 3.58941707e+01     5.38211946e+02     6.70912787e+01     5.66368386e-02
 3.83470586e+01     5.14553174e+02     5.29906375e+01     4.97513958e-02
 4.09675688e+01     4.76835564e+02     4.13477781e+01     4.37896793e-02
 4.37671558e+01     4.88606822e+02     3.24136138e+01     3.78658490e-02
 4.67580574e+01     5.40481609e+02     3.08865047e+01     3.40357101e-02
 4.99533471e+01     3.77822426e+02     2.54300322e+01     3.32824571e-02
 5.33669923e+01     2.92621622e+02     1.89260684e+01     2.98458926e-02
 5.70139146e+01     2.23811735e+02     1.42636933e+01     2.66980199e-02
 6.09100555e+01     2.04003120e+02     1.03247357e+01     2.28311250e-02
 6.50724456e+01     1.99571266e+02     8.12128291e+00     2.01518085e-02
 6.95192796e+01     1.76960671e+02     6.45289787e+00     1.80978543e-02
 7.42699954e+01     1.45883657e+02     5.03341525e+00     1.62340377e-02
 7.93453593e+01     1.19150017e+02     3.85763109e+00     1.44037122e-02
 8.47675566e+01     9.90488394e+01     2.94985620e+00     1.27170704e-02
 9.05602888e+01     8.31513753e+01     2.25116904e+00     1.11908158e-02
 9.67488771e+01     7.02817943e+01     1.71832304e+00     9.83381685e-03
 1.03360373e+02     5.98161687e+01     1.31243232e+00     8.63408489e-03
 1.10423676e+02     5.10600403e+01     1.00278577e+00     7.57610044e-03
 1.17969662e+02     4.37425241e+01     7.66304876e-01     6.64372769e-03
 1.26031315e+02     3.77423711e+01     5.86301681e-01     5.82638838e-03
 1.34643875e+02     3.24565445e+01     4.48638304e-01     5.10838781e-03
 1.43844989e+02     2.80241867e+01     3.43071044e-01     4.47533587e-03
 1.53674876e+02     2.43980131e+01     2.62488900e-01     3.92042042e-03
 1.64176504e+02     2.13094161e+01     2.01041972e-01     3.43547291e-03
 1.75395779e+02     1.86760582e+01     1.54090890e-01     3.01111121e-03
 1.87381742e+02     1.63961927e+01     1.18124256e-01     2.63898424e-03
 2.00186786e+02     1.44167554e+01     9.05735838e-02     2.31282734e-03
 2.13866883e+02     1.25952412e+01     6.94508467e-02     2.02688896e-03
 2.28481833e+02     1.10350845e+01     5.32840941e-02     1.77664695e-03
 2.44095520e+02     9.67939885e+00     4.08901189e-02     1.55735468e-03
 2.60776194e+02     8.49397738e+00     3.13784555e-02     1.36500531e-03
 2.78596770e+02     7.47230792e+00     2.40733859e-02     1.19614696e-03
 2.97635144e+02     6.59121111e+00     1.84679944e-02     1.04807283e-03
 3.17974538e+02     5.84634208e+00     1.41745313e-02     9.18516474e-04
 3.39703857e+02     5.19513817e+00     1.08808652e-02     8.05008483e-04
 3.62918087e+02     4.55427729e+00     8.35500007e-03     7.05776165e-04
 3.87718699e+02     3.95147091e+00     6.41713720e-03     6.18879599e-04
 4.14214102e+02     3.44013038e+00     4.92909136e-03     5.42583377e-04
 4.42520113e+02     3.00376415e+00     3.78633395e-03     4.75649784e-04
 4.72760462e+02     2.57095826e+00     2.90581518e-03     4.16753739e-04
 5.05067336e+02     2.20167539e+00     2.22939049e-03     3.65076360e-04
 5.39581954e+02     1.91023578e+00     1.71029072e-03     3.19780480e-04
 5.76455186e+02     1.66602288e+00     1.31208524e-03     2.80102068e-04
 6.15848211e+02     1.45748987e+00     1.00673899e-03     2.45363925e-04
 6.57933225e+02     1.27846786e+00     7.72603372e-04     2.14955747e-04
 7.02894188e+02     1.12561090e+00     5.92918447e-04     1.88313809e-04
 7.50927633e+02     9.94145735e-01     4.55019008e-04     1.64971738e-04
 8.02243524e+02     8.80216952e-01     3.49190700e-04     1.44521771e-04
 8.57066172e+02     7.86412736e-01     2.68007351e-04     1.26614261e-04
 9.15635217e+02     7.02085144e-01     2.05699050e-04     1.10925566e-04
 9.78206675e+02     6.26246118e-01     1.57883458e-04     9.71830275e-05
 1.04505406e+03     5.60944281e-01     1.21196439e-04     8.51482167e-05
 1.11646957e+03     5.03153453e-01     9.30385710e-05     7.46055397e-05
 1.19276538e+03     4.50774622e-01     7.14210542e-05     6.53672520e-05
 1.27427499e+03     4.03333612e-01     5.48303032e-05     5.72752176e-05
 1.36135469e+03     3.60711995e-01     4.20949092e-05     5.01858174e-05
 1.45438513e+03     3.22174578e-01     3.23182576e-05     4.39744278e-05
 1.55377296e+03     2.86814698e-01     2.48078999e-05     3.85278811e-05
 1.65995263e+03     2.54519440e-01     1.90397403e-05     3.37527223e-05
 1.77338825e+03     2.25474368e-01     1.46122282e-05     2.95687554e-05
 1.89457570e+03     1.99433144e-01     1.12138997e-05     2.59028839e-05
 2.02404468e+03     1.76162659e-01     8.60804973e-06     2.26947218e-05
 2.16236115e+03     1.55503365e-01     6.61598345e-06     1.98981699e-05
 2.31012970e+03     1.37213678e-01     5.08479153e-06     1.74459735e-05
 2.46799626e+03     1.21049946e-01     3.90789038e-06     1.52957901e-05
 2.63665090e+03     1.06803407e-01     3.00224096e-06     1.34076460e-05
 2.81683083e+03     9.43030455e-02     2.30291522e-06     1.17420698e-05
 3.00932366e+03     8.32704917e-02     1.76652923e-06     1.02835450e-05
 3.21497081e+03     7.32961835e-02     1.35610582e-06     9.01013900e-06
 3.43467119e+03     6.45669914e-02     1.04102807e-06     7.89437499e-06
 3.66938517e+03     5.69292105e-02     7.99150115e-07     6.91674789e-06
 3.92013872e+03     5.02462499e-02     6.13468434e-07     6.06017093e-06
 4.18802793e+03     4.43973385e-02     4.70924234e-07     5.30963819e-06
 4.47422380e+03     3.92759599e-02     3.61499363e-07     4.65203705e-06
 4.77997733e+03     3.47886100e-02     2.77500513e-07     4.07587708e-06
 5.10662505e+03     3.08550959e-02     2.13020899e-07     3.57108427e-06
 5.45559478e+03     2.74050491e-02     1.63525547e-07     3.12882935e-06
 5.82841194e+03     2.43896371e-02     1.25531548e-07     2.74136480e-06
 6.22670618e+03     2.17623010e-02     9.63668887e-08     2.40190633e-06
 6.65221852e+03     1.94394599e-02     7.39778204e-08     2.10447380e-06
 7.10680896e+03     1.73834595e-02     5.67906623e-08     1.84387375e-06
 7.59246459e+03     1.55609408e-02     4.35966873e-08     1.61554472e-06
 8.11130831e+03     1.39434559e-02     3.34681607e-08     1.41551782e-06
 8.66560808e+03     1.25060724e-02     2.56928165e-08     1.24021392e-06
 9.25778684e+03     1.12212408e-02     1.97240508e-08     2.22402801e-06
 9.89043313e+03     1.00704923e-02     1.51419968e-08     2.36338776e-06
 1.05663124e+04     8.95254619e-03     1.16236417e-08     2.18529296e-06
 1.12883789e+04     7.94478961e-03     8.92295802e-09     1.91469017e-06
 1.20597891e+04     7.05052947e-03     6.85006751e-09     1.67758244e-06
 1.28839149e+04     6.26169141e-03     5.25866732e-09     1.46988384e-06
 1.37643587e+04     5.56545141e-03     4.03694866e-09     1.28782557e-06
 1.47049691e+04     4.95069870e-03     3.09907156e-09     1.12838223e-06
 1.57098576e+04     4.40786247e-03     2.37901953e-09     9.88618081e-07
 1.67834169e+04     3.92791494e-03     1.82624774e-09     8.66250540e-07
 1.79303397e+04     3.50309663e-03     1.40191586e-09     7.58962838e-07
 1.91556393e+04     3.12689949e-03     1.07617989e-09     6.64907480e-07
 2.04646718e+04     2.79410796e-03     8.26129940e-10     5.82578490e-07
 2.18631593e+04     2.49873172e-03     6.34179673e-10     5.10404889e-07
 2.33572147e+04     2.23637353e-03     4.86829234e-10     4.47187977e-07
 2.49533689e+04     2.00315543e-03     3.73717197e-10     3.91791885e-07
 2.66585989e+04     1.79564087e-03     2.86897380e-10     3.43314566e-07
 2.84803587e+04     1.61089408e-03     2.20247226e-10     3.00878527e-07
 3.04266114e+04     1.45006868e-03     1.69079317e-10     2.63744825e-07
 3.25058646e+04     1.31927579e-03     1.29794518e-10     2.31002971e-07
 3.47272071e+04     1.20172928e-03     9.96373630e-11     2.02233421e-07
 3.71003486e+04     1.09596961e-03     7.64871149e-11     1.77300998e-07
 3.96356627e+04     1.00083284e-03     5.87157250e-11     1.55435092e-07
 4.23442318e+04     9.15367193e-04     4.50734364e-11     1.36136113e-07
 4.52378954e+04     8.38153853e-04     3.46008698e-11     1.19275592e-07
 4.83293024e+04     7.68320257e-04     2.65615519e-11     1.04488396e-07
 5.16319658e+04     7.05112362e-04     2.03901333e-11     9.11450718e-08
 5.51603222e+04     6.47837886e-04     1.56526074e-11     8.11290930e-08
 5.89297947e+04     5.95865506e-04     1.20158223e-11     6.99246522e-08
 6.29568604e+04     5.48797874e-04     9.22402327e-12     6.12586775e-08
 6.72591224e+04     5.06100339e-04     7.08088102e-12     5.37097906e-08
 7.18553866e+04     4.67213183e-04     5.43568621e-12     4.65898638e-08
 7.67657441e+04     4.31761712e-04     4.17274122e-12     4.11604788e-08
 8.20116592e+04     3.99394829e-04     3.20323388e-12     3.69613999e-08
 8.76160625e+04     3.69872590e-04     2.45898522e-12     3.22229039e-08
 9.36034521e+04     3.42993892e-04     1.88765748e-12     2.85809921e-08
 1.00000000e+05     3.18353165e-04     1.44907397e-12     2.38047320e-08
