3
210
 1.00000000e-01     6.81335851e+00     9.53367095e+00     8.97756418e-01
 1.06833667e-01     6.87931429e+00     9.46842788e+00     9.01727230e-01
 1.14134323e-01     6.94465536e+00     9.40380690e+00     9.06981659e-01
 1.21933882e-01     6.95483797e+00     9.39439386e+00     9.06844640e-01
 1.30266437e-01     7.00821193e+00     9.34180102e+00     9.11420636e-01
 1.39168411e-01     6.98935636e+00     9.36149123e+00     9.09501941e-01
 1.48678717e-01     6.95454125e+00     9.39718246e+00     9.04631151e-01
 1.58838925e-01     7.04069629e+00     9.31189784e+00     9.13046041e-01
 1.69693447e-01     7.16746101e+00     9.18605551e+00     9.26313958e-01
 1.81289731e-01     7.22339444e+00     9.13109720e+00     9.32152026e-01
 1.93678467e-01     7.24394206e+00     9.11157273e+00     9.34292045e-01
 2.06913808e-01     7.25542411e+00     9.10116140e+00     9.35476626e-01
 2.21053608e-01     7.26002846e+00     9.09767859e+00     9.35929530e-01
 2.36159675e-01     7.26444911e+00     9.09443211e+00     9.36342161e-01
 2.52298039e-01     7.26731379e+00     9.09279473e+00     9.36595229e-01
 2.69539246e-01     7.27297992e+00     9.08841063e+00     9.37136456e-01
 2.87958660e-01     7.27778258e+00     9.08494810e+00     9.37588885e-01
 3.07636795e-01     7.28004750e+00     9.08408399e+00     9.37780948e-01
 3.28659667e-01     7.28090667e+00     9.08469096e+00     9.37819539e-01
 3.51119173e-01     7.28302209e+00     9.08410863e+00     9.37985562e-01
 3.75113487e-01     7.29123229e+00     9.07749821e+00     9.38784713e-01
 4.00747492e-01     7.29881576e+00     9.07158613e+00     9.39518973e-01
 4.28133240e-01     7.30555475e+00     9.06659450e+00     9.40163260e-01
 4.57390438e-01     7.31183830e+00     9.06213551e+00     9.40759284e-01
 4.88646976e-01     7.31820828e+00     9.05767098e+00     9.41362759e-01
 5.22039481e-01     7.32439212e+00     9.05347815e+00     9.41943201e-01
 5.57713919e-01     7.32827047e+00     9.05167978e+00     9.42284195e-01
 5.95826229e-01     7.33154895e+00     9.05057522e+00     9.42560020e-01
 6.36543007e-01     7.33490356e+00     9.04949273e+00     9.42839825e-01
 6.80042234e-01     7.33809811e+00     9.04867186e+00     9.43099871e-01
 7.26514053e-01     7.34120413e+00     9.04804506e+00     9.43346635e-01
 7.76161601e-01     7.34267866e+00     9.04916067e+00     9.43422741e-01
 8.29201897e-01     7.34406481e+00     9.05048071e+00     9.43485164e-01
 8.85866790e-01     7.34513246e+00     9.05224310e+00     9.43509950e-01
 9.46403974e-01     7.34584433e+00     9.05448932e+00     9.43495053e-01
 1.01107807e+00     7.34653833e+00     9.05688634e+00     9.43474394e-01
 1.08017177e+00     7.34804519e+00     9.05860698e+00     9.43531344e-01
 1.15398711e+00     7.34961098e+00     9.06041273e+00     9.43589913e-01
 1.23284674e+00     7.35307135e+00     9.06047213e+00     9.43832676e-01
 1.31709538e+00     7.35699446e+00     9.06022756e+00     9.44107388e-01
 1.40710128e+00     7.35931025e+00     9.06175418e+00     9.44201917e-01
 1.50325789e+00     7.36213823e+00     9.06294034e+00     9.44342921e-01
 1.60598553e+00     7.36311654e+00     9.06615993e+00     9.44298721e-01
 1.71573322e+00     7.36443836e+00     9.06922602e+00     9.44287139e-01
 1.83298071e+00     7.36652013e+00     9.07172969e+00     9.44351136e-01
 1.95824050e+00     7.37095111e+00     9.07209363e+00     9.44641231e-01
 2.09206013e+00     7.37709427e+00     9.07095551e+00     9.45077718e-01
 2.23502454e+00     7.38606441e+00     9.06720538e+00     9.45778343e-01
 2.38775867e+00     7.39929928e+00     9.05941589e+00     9.46870298e-01
 2.55093014e+00     7.42089972e+00     9.04349405e+00     9.48748702e-01
 2.72525220e+00     7.46287264e+00     9.00737085e+00     9.52572918e-01
 2.91148685e+00     7.53133273e+00     8.94339070e+00     9.59271003e-01
 3.11044815e+00     7.22028826e+00     9.26234728e+00     9.28591393e-01
 3.32300581e+00     7.25233400e+00     9.23749525e+00     9.30612437e-01
 3.55008895e+00     7.30343623e+00     9.19356811e+00     9.35499431e-01
 3.79269019e+00     7.33906737e+00     9.16538241e+00     9.38876152e-01
 4.05186999e+00     7.36003331e+00     9.15209849e+00     9.40634185e-01
 4.32876128e+00     7.38018543e+00     9.14001763e+00     9.42241528e-01
 4.62457440e+00     7.38818639e+00     9.14044806e+00     9.42643823e-01
 4.94060239e+00     7.40314583e+00     9.13431872e+00     9.43772034e-01
 5.27822669e+00     7.43047861e+00     9.11614492e+00     9.45994006e-01
 5.63892310e+00     7.46134516e+00     9.09454239e+00     9.48496810e-01
 6.02426831e+00     7.45797073e+00     9.10746593e+00     9.47744956e-01
 6.43594672e+00     7.44739074e+00     9.12862678e+00     9.46162620e-01
 6.87575786e+00     7.45381799e+00     9.13319556e+00     9.46210633e-01
 7.34562423e+00     7.48552037e+00     9.11288945e+00     9.48682778e-01
 7.84759970e+00     7.53208171e+00     9.07761200e+00     9.52571289e-01
 8.38387850e+00     7.56142379e+00     9.05872163e+00     9.54938811e-01
 8.95680481e+00     7.56791862e+00     9.06244355e+00     9.55333799e-01
 9.56888299e+00     7.50236813e+00     9.14029863e+00     9.49074076e-01
 1.02227886e+01     7.46585658e+00     9.19097124e+00     9.45054720e-01
 1.09213798e+01     7.40389242e+00     9.26765728e+00     9.38896620e-01
 1.16677105e+01     7.29390913e+00     9.39685554e+00     9.27179886e-01
 1.24650430e+01     7.23628710e+00     9.47376293e+00     9.19825694e-01
 1.33168624e+01     7.21953479e+00     9.50890808e+00     9.16510929e-01
 1.42268924e+01     7.23764489e+00     9.50859205e+00     9.16832903e-01
 1.51991108e+01     7.25803113e+00     9.50638431e+00     9.17715349e-01
 1.62377674e+01     7.24190791e+00     9.54249395e+00     9.15001128e-01
 1.73474023e+01     7.23234129e+00     9.57296516e+00     9.12608853e-01
 1.85328659e+01     7.22873487e+00     9.59816260e+00     9.10764955e-01
 1.97993402e+01     7.22271220e+00     9.62676512e+00     9.08591104e-01
 2.11523611e+01     7.24782748e+00     9.62416367e+00     9.09477399e-01
 2.25978429e+01     7.27600142e+00     9.61947762e+00     9.10739900e-01
 2.41421042e+01     7.30197086e+00     9.61810223e+00     9.11824118e-01
 2.57918951e+01     7.30490591e+00     9.64166783e+00     9.10599941e-01
 2.75544272e+01     7.28281272e+00     9.69271554e+00     9.06690921e-01
 2.94374049e+01     7.25283258e+00     9.75358677e+00     9.01783347e-01
 3.14490590e+01     7.24119764e+00     9.79635471e+00     8.98370685e-01
 3.35981829e+01     7.24369136e+00     9.82570016e+00     8.96363170e-01
 3.58941707e+01     7.25813706e+00     9.84400008e+00     8.95490666e-01
 3.83470586e+01     7.25707351e+00     9.88058499e+00     8.93064113e-01
 4.09675688e+01     7.26658048e+00     9.90735032e+00     8.91478557e-01
 4.37671558e+01     7.27017863e+00     9.94359127e+00     8.89538379e-01
 4.67580574e+01     7.10841815e+00     1.01616627e+01     8.71178934e-01
 4.99533471e+01     7.06354303e+00     1.02403480e+01     8.62804946e-01
 5.33669923e+01     7.11673932e+00     1.02210485e+01     8.64780871e-01
 5.70139146e+01     7.15746508e+00     1.02164687e+01     8.65528390e-01
 6.09100555e+01     7.24555825e+00     1.01720879e+01     8.70753630e-01
 6.50724456e+01     7.25186991e+00     1.02152806e+01     8.67898790e-01
 6.95192796e+01     7.24525930e+00     1.02697906e+01     8.63652605e-01
 7.42699954e+01     7.25580481e+00     1.03058938e+01     8.60956114e-01
 7.93453593e+01     7.28531623e+00     1.03225994e+01     8.59918377e-01
 8.47675566e+01     7.31690628e+00     1.03435905e+01     8.58995760e-01
 9.05602888e+01     7.34841829e+00     1.03643906e+01     8.57950720e-01
 9.67488771e+01     7.37578532e+00     1.03880932e+01     8.56463613e-01
 1.03360373e+02     7.39714220e+00     1.04431453e+01     8.54753345e-01
 1.10423676e+02     7.41271300e+00     1.04728783e+01     8.52117305e-01
 1.17969662e+02     7.42062454e+00     1.05206164e+01     8.48978500e-01
 1.26031315e+02     7.42126236e+00     1.06470649e+01     8.46160495e-01
 1.34643875e+02     7.40969143e+00     1.06853408e+01     8.41035998e-01
 1.43844989e+02     7.39067887e+00     1.07098850e+01     8.35149106e-01
 1.53674876e+02     7.36617624e+00     1.09179080e+01     8.32074323e-01
 1.64176504e+02     7.33154625e+00     1.11034740e+01     8.28931412e-01
 1.75395779e+02     7.27503284e+00     1.10135768e+01     8.19136331e-01
 1.87381742e+02     7.22030362e+00     1.10990772e+01     8.12270319e-01
 2.00186786e+02     7.16407117e+00     1.15781188e+01     8.10940948e-01
 2.13866883e+02     7.11497441e+00     1.18905565e+01     8.07256899e-01
 2.28481833e+02     7.10962504e+00     1.16519802e+01     7.95129076e-01
 2.44095520e+02     7.09766180e+00     1.14137950e+01     7.81151271e-01
 2.60776194e+02     7.07399866e+00     1.18092387e+01     7.78865971e-01
 2.78596770e+02     7.01921490e+00     1.25018671e+01     7.82802068e-01
 2.97635144e+02     6.96148279e+00     1.25446304e+01     7.77986552e-01
 3.17974538e+02     6.96045317e+00     1.19477701e+01     7.63015087e-01
 3.39703857e+02     7.06866385e+00     1.16747370e+01     7.54851134e-01
 3.62918087e+02     7.23313643e+00     1.23238921e+01     7.60933810e-01
 3.87718699e+02     7.39884930e+00     1.31944204e+01     7.70404159e-01
 4.14214102e+02     7.42868356e+00     1.30770853e+01     7.56766011e-01
 4.42520113e+02     7.54129187e+00     1.18389407e+01     7.30698028e-01
 4.72760462e+02     7.60191569e+00     1.18895575e+01     7.31112370e-01
 5.05067336e+02     7.48105135e+00     1.35267017e+01     7.48761073e-01
 5.39581954e+02     7.21622539e+00     1.48661557e+01     7.38980261e-01
 5.76455186e+02     6.77262006e+00     1.41004995e+01     6.76017737e-01
 6.15848211e+02     6.33227130e+00     1.27401450e+01     5.63942522e-01
 6.57933225e+02     5.64745834e+00     1.32650641e+01     5.16970740e-01
 7.02894188e+02     5.15807536e+00     1.50899781e+01     5.40052071e-01
 7.50927633e+02     5.13068744e+00     1.93881638e+01     6.22715020e-01
 8.02243524e+02     4.22220670e+00     2.07770388e+01     6.57015858e-01
 8.57066172e+02     4.97002424e+00     2.21688782e+01     6.79143815e-01
 9.15635217e+02     3.93231727e+00     1.89632159e+01     6.27586752e-01
 9.78206675e+02     4.50459655e+00     1.73926318e+01     5.43983602e-01
 1.04505406e+03     4.10624880e+00     1.41013358e+01     4.07008749e-01
 1.11646957e+03     3.99381759e+00     1.21102766e+01     2.54066374e-01
 1.19276538e+03     3.77417988e+00     1.37842297e+01     1.27535953e-01
 1.27427499e+03     3.29904245e+00     1.51388732e+01     1.49109249e-01
 1.36135469e+03     3.29897057e+00     1.83545931e+01     2.45506545e-01
 1.45438513e+03     3.23035872e+00     2.30174054e+01     2.35248983e-01
 1.55377296e+03     2.33450028e+00     2.70847700e+01     2.67820732e-01
 1.65995263e+03     1.81233724e+00     3.06197975e+01     3.45098005e-01
 1.77338825e+03     2.34376916e+00     3.83163288e+01     4.22199883e-01
 1.89457570e+03     2.31651847e+00     3.94690161e+01     4.11997991e-01
 2.02404468e+03     1.50098925e+00     3.51208831e+01     3.68762648e-01
 2.16236115e+03     9.02155895e-01     3.29347896e+01     3.34950149e-01
 2.31012970e+03     7.96627468e-01     3.52976787e+01     3.28197911e-01
 2.46799626e+03     9.61245057e-01     3.98228255e+01     3.60510351e-01
 2.63665090e+03     1.14480760e+00     4.10822553e+01     4.35911398e-01
 2.81683083e+03     1.00607271e+00     3.35256414e+01     5.03839163e-01
 3.00932366e+03     6.81952779e-01     2.31450905e+01     5.04288377e-01
 3.21497081e+03     4.18061681e-01     1.55881139e+01     4.47179044e-01
 3.43467119e+03     2.70029132e-01     1.11227250e+01     3.74326540e-01
 3.66938517e+03     1.89066667e-01     8.24716277e+00     3.10304055e-01
 3.92013872e+03     1.40278733e-01     6.19053832e+00     2.59414441e-01
 4.18802793e+03     1.08086497e-01     4.65504257e+00     2.19327224e-01
 4.47422380e+03     8.54371202e-02     3.49731688e+00     1.87227779e-01
 4.77997733e+03     6.87978994e-02     2.62534088e+00     1.61004380e-01
 5.10662505e+03     5.62072827e-02     1.97058838e+00     1.39203419e-01
 5.45559478e+03     4.64737163e-02     1.48006512e+00     1.20827099e-01
 5.82841194e+03     3.88429810e-02     1.11292030e+00     1.05173425e-01
 6.22670618e+03     3.27949700e-02     8.38081164e-01     9.17347043e-02
 6.65221852e+03     2.79004862e-02     6.32123668e-01     8.01295098e-02
 7.10680896e+03     2.38984503e-02     4.77563577e-01     7.00656207e-02
 7.59246459e+03     2.05950135e-02     3.61373444e-01     6.13114927e-02
 8.11130831e+03     1.78451543e-02     2.73868064e-01     5.36794248e-02
 8.66560808e+03     1.55382973e-02     2.07844883e-01     4.70147211e-02
 9.25778684e+03     1.35821530e-02     1.57943176e-01     4.11881154e-02
 9.89043313e+03     1.19114796e-02     1.20163552e-01     3.60899755e-02
 1.05663124e+04     1.03760535e-02     9.15106374e-02     3.16251916e-02
 1.12883789e+04     9.04462971e-03     6.97567869e-02     2.77150030e-02
 1.20597891e+04     7.90103673e-03     5.32211998e-02     2.42898932e-02
 1.28839149e+04     6.92034812e-03     4.06349406e-02     2.12883107e-02
 1.37643587e+04     6.07624229e-03     3.10453371e-02     1.86576311e-02
 1.47049691e+04     5.34735701e-03     2.37326398e-02     1.63519556e-02
 1.57098576e+04     4.71630591e-03     1.81512179e-02     1.43308014e-02
 1.67834169e+04     4.16806221e-03     1.38885422e-02     1.25591861e-02
 1.79303397e+04     3.69029471e-03     1.06311611e-02     1.10065176e-02
 1.91556393e+04     3.27299063e-03     8.14061295e-03     9.64556066e-03
 2.04646718e+04     2.90827056e-03     6.23544390e-03     8.45268416e-03
 2.18631593e+04     2.58803572e-03     4.77744018e-03     7.40717848e-03
 2.33572147e+04     2.30630233e-03     3.66122476e-03     6.49088461e-03
 2.49533689e+04     2.05796634e-03     2.80640243e-03     5.68786489e-03
 2.66585989e+04     1.83864361e-03     2.15164156e-03     4.98423058e-03
 2.84803587e+04     1.64466379e-03     1.64990814e-03     4.36758371e-03
 3.04266114e+04     1.47668092e-03     1.26533845e-03     3.82716056e-03
 3.25058646e+04     1.34047369e-03     9.70493979e-04     3.35350497e-03
 3.47272071e+04     1.21863632e-03     7.44433484e-04     2.93843959e-03
 3.71003486e+04     1.10947163e-03     5.71084355e-04     2.57472404e-03
 3.96356627e+04     1.01163056e-03     4.38137854e-04     2.25601028e-03
 4.23442318e+04     9.24016071e-04     3.36165381e-04     1.97673441e-03
 4.52378954e+04     8.45089811e-04     2.57942558e-04     1.73201951e-03
 4.83293024e+04     7.73889104e-04     1.97932625e-04     1.51759107e-03
 5.16319658e+04     7.09588862e-04     1.51891419e-04     1.32970287e-03
 5.51603222e+04     6.51440510e-04     1.16564887e-04     1.16507120e-03
 5.89297947e+04     5.98768118e-04     8.94579209e-05     1.02081883e-03
 6.29568604e+04     5.51139681e-04     6.86569100e-05     8.94423890e-04
 6.72591224e+04     5.07992184e-04     5.26941323e-05     7.83676341e-04
 7.18553866e+04     4.68743686e-04     4.04437639e-05     6.86811124e-04
 7.67657441e+04     4.33001011e-04     3.10420549e-05     6.01851304e-04
 8.20116592e+04     4.00399167e-04     2.38263678e-05     5.27339540e-04
 8.76160625e+04     3.70687370e-04     1.82882729e-05     4.62016605e-04
 9.36034521e+04     3.43655791e-04     1.40376377e-05     4.04787292e-04
 1.00000000e+05     3.18891363e-04     1.07750961e-05     3.54648390e-04
