3
210
 1.00000000e-01     1.85308070e+01     2.59519781e+01     8.97880073e-01
 1.06833667e-01     1.87110543e+01     2.57755402e+01     9.01850691e-01
 1.14134323e-01     1.88894747e+01     2.56009198e+01     9.07103213e-01
 1.21933882e-01     1.89179603e+01     2.55765292e+01     9.06969829e-01
 1.30266437e-01     1.90638443e+01     2.54347561e+01     9.11543072e-01
 1.39168411e-01     1.90132553e+01     2.54897767e+01     9.09632241e-01
 1.48678717e-01     1.89195752e+01     2.55881141e+01     9.04771691e-01
 1.58838925e-01     1.91546125e+01     2.53576156e+01     9.13179074e-01
 1.69693447e-01     1.95000845e+01     2.50169827e+01     9.26430287e-01
 1.81289731e-01     1.96530641e+01     2.48691413e+01     9.32261985e-01
 1.93678467e-01     1.97098780e+01     2.48177236e+01     9.34402433e-01
 2.06913808e-01     1.97421099e+01     2.47911427e+01     9.35588936e-01
 2.21053608e-01     1.97556858e+01     2.47834908e+01     9.36044360e-01
 2.36159675e-01     1.97688537e+01     2.47765289e+01     9.36460118e-01
 2.52298039e-01     1.97778474e+01     2.47740220e+01     9.36716596e-01
 2.69539246e-01     1.97945372e+01     2.47641085e+01     9.37260039e-01
 2.87958660e-01     1.98089615e+01     2.47567671e+01     9.37715717e-01
 3.07636795e-01     1.98165733e+01     2.47565592e+01     9.37911518e-01
 3.28659667e-01     1.98204299e+01     2.47604559e+01     9.37953281e-01
 3.51119173e-01     1.98277526e+01     2.47612431e+01     9.38120077e-01
 3.75113487e-01     1.98516296e+01     2.47458232e+01     9.38913050e-01
 4.00747492e-01     1.98735542e+01     2.47327344e+01     9.39627352e-01
 4.28133240e-01     1.98921603e+01     2.47233617e+01     9.40210446e-01
 4.57390438e-01     1.99083987e+01     2.47167771e+01     9.40702274e-01
 4.88646976e-01     1.99255991e+01     2.47096583e+01     9.41225357e-01
 5.22039481e-01     1.99415982e+01     2.47041400e+01     9.41701228e-01
 5.57713919e-01     1.99505190e+01     2.47061833e+01     9.41909094e-01
 5.95826229e-01     1.99565326e+01     2.47116597e+01     9.42007788e-01
 6.36543007e-01     1.99615631e+01     2.47186851e+01     9.42070601e-01
 6.80042234e-01     1.99693825e+01     2.47234452e+01     9.42215910e-01
 7.26514053e-01     1.99786169e+01     2.47273037e+01     9.42397472e-01
 7.76161601e-01     1.99843185e+01     2.47352697e+01     9.42431524e-01
 8.29201897e-01     1.99900534e+01     2.47438119e+01     9.42454850e-01
 8.85866790e-01     1.99892329e+01     2.47595629e+01     9.42265435e-01
 9.46403974e-01     1.99813301e+01     2.47830753e+01     9.41858003e-01
 1.01107807e+00     1.99714380e+01     2.48092310e+01     9.41401589e-01
 1.08017177e+00     1.99662341e+01     2.48313592e+01     9.41101545e-01
 1.15398711e+00     1.99596589e+01     2.48555795e+01     9.40770097e-01
 1.23284674e+00     1.99628848e+01     2.48708272e+01     9.40751830e-01
 1.31709538e+00     1.99800188e+01     2.48732079e+01     9.41079926e-01
 1.40710128e+00     2.00066240e+01     2.48669066e+01     9.41567014e-01
 1.50325789e+00     2.00301511e+01     2.48646082e+01     9.41979503e-01
 1.60598553e+00     2.00287638e+01     2.48881175e+01     9.41684503e-01
 1.71573322e+00     2.00195682e+01     2.49205290e+01     9.41207223e-01
 1.83298071e+00     2.00061934e+01     2.49583031e+01     9.40667447e-01
 1.95824050e+00     2.00022319e+01     2.49877736e+01     9.40441692e-01
 2.09206013e+00     2.00197589e+01     2.49964202e+01     9.40768532e-01
 2.23502454e+00     2.00510593e+01     2.49921796e+01     9.41500861e-01
 2.38775867e+00     2.01131522e+01     2.49589888e+01     9.43015362e-01
 2.55093014e+00     2.02204935e+01     2.48815327e+01     9.45799647e-01
 2.72525220e+00     2.04230055e+01     2.47096436e+01     9.51463009e-01
 2.91148685e+00     2.06659471e+01     2.44865822e+01     9.59331216e-01
 3.11044815e+00     1.98219510e+01     2.53739076e+01     9.28882724e-01
 3.32300581e+00     1.99195062e+01     2.53154429e+01     9.30751966e-01
 3.55008895e+00     1.99680113e+01     2.53047959e+01     9.32775152e-01
 3.79269019e+00     1.99973909e+01     2.53153397e+01     9.34381758e-01
 4.05186999e+00     2.00859721e+01     2.52670597e+01     9.36576043e-01
 4.32876128e+00     2.02003746e+01     2.51951539e+01     9.39176301e-01
 4.62457440e+00     2.02412684e+01     2.51986833e+01     9.39670114e-01
 4.94060239e+00     2.02515772e+01     2.52346382e+01     9.39874044e-01
 5.27822669e+00     2.03832994e+01     2.51512698e+01     9.42935198e-01
 5.63892310e+00     2.05921675e+01     2.49899434e+01     9.47744618e-01
 6.02426831e+00     2.06253938e+01     2.50055288e+01     9.47602735e-01
 6.43594672e+00     2.06144694e+01     2.50720128e+01     9.45957385e-01
 6.87575786e+00     2.06508506e+01     2.50934367e+01     9.45893603e-01
 7.34562423e+00     2.07569507e+01     2.50474326e+01     9.48179652e-01
 7.84759970e+00     2.09193373e+01     2.49432448e+01     9.52216152e-01
 8.38387850e+00     2.10293510e+01     2.48834810e+01     9.54672552e-01
 8.95680481e+00     2.10684361e+01     2.48910090e+01     9.55028445e-01
 9.56888299e+00     2.09059831e+01     2.51126853e+01     9.48790001e-01
 1.02227886e+01     2.08309042e+01     2.52603213e+01     9.44766020e-01
 1.09213798e+01     2.06841703e+01     2.54813566e+01     9.38630283e-01
 1.16677105e+01     2.04137333e+01     2.58567791e+01     9.27010021e-01
 1.24650430e+01     2.02927424e+01     2.60826227e+01     9.19688942e-01
 1.33168624e+01     2.02842726e+01     2.61887171e+01     9.16343566e-01
 1.42268924e+01     2.03720058e+01     2.61937431e+01     9.16576997e-01
 1.51991108e+01     2.04667206e+01     2.61925790e+01     9.17362379e-01
 1.62377674e+01     2.04622461e+01     2.63001488e+01     9.14598791e-01
 1.73474023e+01     2.04785137e+01     2.63923629e+01     9.12138260e-01
 1.85328659e+01     2.05130515e+01     2.64694809e+01     9.10208747e-01
 1.97993402e+01     2.05427857e+01     2.65563755e+01     9.07942644e-01
 2.11523611e+01     2.06610446e+01     2.65541287e+01     9.08675836e-01
 2.25978429e+01     2.07906391e+01     2.65450146e+01     9.09774468e-01
 2.41421042e+01     2.09168992e+01     2.65439734e+01     9.10692586e-01
 2.57918951e+01     2.09811442e+01     2.66138044e+01     9.09327061e-01
 2.75544272e+01     2.09781508e+01     2.67639251e+01     9.05301584e-01
 2.94374049e+01     2.09560019e+01     2.69435511e+01     9.00276430e-01
 3.14490590e+01     2.09871106e+01     2.70714923e+01     8.96691890e-01
 3.35981829e+01     2.10604680e+01     2.71598697e+01     8.94471874e-01
 3.58941707e+01     2.11706167e+01     2.72154932e+01     8.93348208e-01
 3.83470586e+01     2.12409058e+01     2.73243264e+01     8.90685407e-01
 4.09675688e+01     2.13436850e+01     2.74044469e+01     8.88816797e-01
 4.37671558e+01     2.14359532e+01     2.75104733e+01     8.86597447e-01
 4.67580574e+01     2.10670996e+01     2.81607381e+01     8.68272159e-01
 4.99533471e+01     2.09972153e+01     2.83900645e+01     8.59500273e-01
 5.33669923e+01     2.12223302e+01     2.83312752e+01     8.60867173e-01
 5.70139146e+01     2.14133328e+01     2.83389355e+01     8.60994344e-01
 6.09100555e+01     2.17686973e+01     2.81937199e+01     8.65576082e-01
 6.50724456e+01     2.18865790e+01     2.83065178e+01     8.62182959e-01
 6.95192796e+01     2.19582619e+01     2.84723898e+01     8.57285963e-01
 7.42699954e+01     2.20771783e+01     2.86201792e+01     8.53888590e-01
 7.93453593e+01     2.22511078e+01     2.87535800e+01     8.52051507e-01
 8.47675566e+01     2.24298633e+01     2.87297993e+01     8.49094437e-01
 9.05602888e+01     2.26193986e+01     2.86184296e+01     8.45509171e-01
 9.67488771e+01     2.28153830e+01     2.88464634e+01     8.43600075e-01
 1.03360373e+02     2.30142114e+01     2.93656401e+01     8.43299253e-01
 1.10423676e+02     2.32151939e+01     2.95234493e+01     8.41210789e-01
 1.17969662e+02     2.34401049e+01     2.89983044e+01     8.35791864e-01
 1.26031315e+02     2.37148962e+01     2.85580670e+01     8.30822719e-01
 1.34643875e+02     2.40413107e+01     2.90810454e+01     8.30877041e-01
 1.43844989e+02     2.43760154e+01     3.02749461e+01     8.33207961e-01
 1.53674876e+02     2.47799839e+01     3.00673086e+01     8.29204313e-01
 1.64176504e+02     2.51959344e+01     2.88080280e+01     8.20663737e-01
 1.75395779e+02     2.55507392e+01     2.87750765e+01     8.18693284e-01
 1.87381742e+02     2.59133508e+01     3.04656139e+01     8.26622191e-01
 2.00186786e+02     2.60138058e+01     3.17193102e+01     8.19574930e-01
 2.13866883e+02     2.58995548e+01     3.03453929e+01     7.87685342e-01
 2.28481833e+02     2.51978998e+01     2.84592289e+01     7.16156122e-01
 2.44095520e+02     2.43206454e+01     2.93087052e+01     6.88066514e-01
 2.60776194e+02     2.33296021e+01     3.45604786e+01     6.81740587e-01
 2.78596770e+02     2.24521816e+01     4.13613563e+01     7.32107292e-01
 2.97635144e+02     2.13665512e+01     4.59660548e+01     7.28302079e-01
 3.17974538e+02     2.15411286e+01     4.71841826e+01     7.53598277e-01
 3.39703857e+02     2.09344896e+01     4.18922122e+01     6.98614699e-01
 3.62918087e+02     1.99496399e+01     3.69417263e+01     6.15111837e-01
 3.87718699e+02     2.18399751e+01     3.19898206e+01     5.21674954e-01
 4.14214102e+02     1.73846734e+01     2.45683530e+01     3.45289603e-01
 4.42520113e+02     1.98877778e+01     3.14129627e+01     2.03410277e-01
 4.72760462e+02     1.65905658e+01     3.73855779e+01     2.29514966e-01
 5.05067336e+02     1.51488199e+01     4.04058009e+01     3.18145865e-01
 5.39581954e+02     1.75217342e+01     5.84515402e+01     2.86507096e-01
 5.76455186e+02     1.04343929e+01     6.73927558e+01     2.95381598e-01
 6.15848211e+02     9.47852226e+00     7.97337478e+01     3.80667657e-01
 6.57933225e+02     1.17434763e+01     9.60418447e+01     4.59781909e-01
 7.02894188e+02     1.29376972e+01     1.04244803e+02     4.39001363e-01
 7.50927633e+02     7.04151374e+00     8.69684014e+01     3.71964158e-01
 8.02243524e+02     4.50951282e+00     8.57953881e+01     3.40552782e-01
 8.57066172e+02     4.36858720e+00     9.33899721e+01     3.34976313e-01
 9.15635217e+02     5.39705618e+00     1.04803948e+02     3.71464201e-01
 9.78206675e+02     6.57945587e+00     1.07976260e+02     4.52606475e-01
 1.04505406e+03     5.76995314e+00     8.53637245e+01     5.21341996e-01
 1.11646957e+03     3.72114925e+00     5.64901076e+01     5.08606169e-01
 1.19276538e+03     2.32503662e+00     3.88001552e+01     4.38601063e-01
 1.27427499e+03     1.57215253e+00     2.83301939e+01     3.63179713e-01
 1.36135469e+03     1.14161903e+00     2.12158057e+01     3.00840286e-01
 1.45438513e+03     8.68752472e-01     1.59820036e+01     2.51993688e-01
 1.55377296e+03     6.79857506e-01     1.20307213e+01     2.13460888e-01
 1.65995263e+03     5.41816818e-01     9.04064349e+00     1.82471043e-01
 1.77338825e+03     4.37904283e-01     6.78711695e+00     1.57062483e-01
 1.89457570e+03     3.57723286e-01     5.09487185e+00     1.35878356e-01
 2.02404468e+03     2.94804294e-01     3.82833233e+00     1.18006889e-01
 2.16236115e+03     2.44978750e-01     2.88424248e+00     1.02846166e-01
 2.31012970e+03     2.04932969e-01     2.17594060e+00     8.97991529e-02
 2.46799626e+03     1.72457072e-01     1.64406859e+00     7.85114986e-02
 2.63665090e+03     1.45919812e-01     1.24362756e+00     6.86918697e-02
 2.81683083e+03     1.24105099e-01     9.40573868e-01     6.00832621e-02
 3.00932366e+03     1.06023975e-01     7.12461183e-01     5.25814570e-02
 3.21497081e+03     9.06568414e-02     5.40866264e-01     4.60542887e-02
 3.43467119e+03     7.78421523e-02     4.11111469e-01     4.03469025e-02
 3.66938517e+03     6.71019482e-02     3.12838179e-01     3.53524319e-02
 3.92013872e+03     5.80577870e-02     2.38298535e-01     3.09794173e-02
 4.18802793e+03     5.04078379e-02     1.81683016e-01     2.71489217e-02
 4.47422380e+03     4.39098045e-02     1.38630232e-01     2.37928490e-02
 4.77997733e+03     3.83680028e-02     1.05855790e-01     2.08519803e-02
 5.10662505e+03     3.36253305e-02     8.08818086e-02     1.82747121e-02
 5.45559478e+03     2.95532073e-02     6.18354028e-02     1.60159890e-02
 5.82841194e+03     2.60595163e-02     4.72980859e-02     1.40363341e-02
 6.22670618e+03     2.30642875e-02     3.61949622e-02     1.23013078e-02
 6.65221852e+03     2.04560948e-02     2.77088812e-02     1.07806511e-02
 7.10680896e+03     1.81783754e-02     2.12196829e-02     9.44776390e-03
 7.59246459e+03     1.61832807e-02     1.62550901e-02     8.27943655e-03
 8.11130831e+03     1.44312870e-02     1.24553367e-02     7.25547764e-03
 8.66560808e+03     1.28889106e-02     9.54603453e-03     6.35806350e-03
 9.25778684e+03     1.15218214e-02     7.31782538e-03     5.57158900e-03
 9.89043313e+03     1.03065905e-02     5.61075356e-03     4.88234807e-03
 1.05663124e+04     9.13626645e-03     4.30229298e-03     4.27815478e-03
 1.12883789e+04     8.08752286e-03     3.29948199e-03     3.74872317e-03
 1.20597891e+04     7.16143648e-03     2.53082988e-03     3.28485822e-03
 1.28839149e+04     6.34794097e-03     1.94142453e-03     2.87834283e-03
 1.37643587e+04     5.63258244e-03     1.48941137e-03     2.52210134e-03
 1.47049691e+04     5.00299581e-03     1.14273280e-03     2.20993504e-03
 1.57098576e+04     4.44864194e-03     8.76785579e-04     1.93636132e-03
 1.67834169e+04     3.95974198e-03     6.72766376e-04     1.69663243e-03
 1.79303397e+04     3.52795815e-03     5.16249137e-04     1.48657559e-03
 1.91556393e+04     3.14633735e-03     3.96164687e-04     1.30251997e-03
 2.04646718e+04     2.80932224e-03     3.04026096e-04     1.14124833e-03
 2.18631593e+04     2.51065004e-03     2.33325562e-04     9.99941258e-04
 2.33572147e+04     2.24571768e-03     1.79072166e-04     8.76127896e-04
 2.49533689e+04     2.01048762e-03     1.37438423e-04     7.67655928e-04
 2.66585989e+04     1.80140086e-03     1.05491163e-04     6.72786201e-04
 2.84803587e+04     1.61542233e-03     8.09717858e-05     5.89607320e-04
 3.04266114e+04     1.45363948e-03     6.21520733e-05     5.16577748e-04
 3.25058646e+04     1.32212172e-03     4.77057286e-05     4.52587524e-04
 3.47272071e+04     1.20400026e-03     3.66177583e-05     3.96525784e-04
 3.71003486e+04     1.09778403e-03     2.81072723e-05     3.47409857e-04
 3.96356627e+04     1.00228441e-03     2.15749888e-05     3.04378811e-04
 4.23442318e+04     9.16530249e-04     1.65610095e-05     2.66678541e-04
 4.52378954e+04     8.39086817e-04     1.27123792e-05     2.33648475e-04
 4.83293024e+04     7.69069520e-04     9.75821159e-06     2.04709930e-04
 5.16319658e+04     7.05714795e-04     7.49060095e-06     1.79355978e-04
 5.51603222e+04     6.48322806e-04     5.74997019e-06     1.57142477e-04
 5.89297947e+04     5.96256267e-04     4.41384319e-06     1.37680401e-04
 6.29568604e+04     5.49113186e-04     3.38820919e-06     1.20628882e-04
 6.72591224e+04     5.06355103e-04     2.60090940e-06     1.05689296e-04
 7.18553866e+04     4.67419249e-04     1.99655798e-06     9.26000651e-05
 7.67657441e+04     4.31928555e-04     1.53263888e-06     8.11319564e-05
 8.20116592e+04     3.99530042e-04     1.17651918e-06     7.10841910e-05
 8.76160625e+04     3.69982298e-04     9.03148730e-07     6.22808401e-05
 9.36034521e+04     3.43083027e-04     6.93298726e-07     5.45677663e-05
 1.00000000e+05     3.18425652e-04     5.32209213e-07     4.78099380e-05
