3
210
 1.00000000e-01     9.61046771e-01     1.34363901e+00     8.97649996e-01
 1.06833667e-01     9.70327077e-01     1.33438562e+00     9.01622394e-01
 1.14134323e-01     9.79523107e-01     1.32521719e+00     9.06878071e-01
 1.21933882e-01     9.80937627e-01     1.32383188e+00     9.06738231e-01
 1.30266437e-01     9.88445064e-01     1.31635452e+00     9.11313747e-01
 1.39168411e-01     9.85766572e-01     1.31906478e+00     9.09389664e-01
 1.48678717e-01     9.80826965e-01     1.32403768e+00     9.04508616e-01
 1.58838925e-01     9.92960013e-01     1.31193852e+00     9.12931682e-01
 1.69693447e-01     1.01081997e+00     1.29411421e+00     9.26210990e-01
 1.81289731e-01     1.01868556e+00     1.28628612e+00     9.32052962e-01
 1.93678467e-01     1.02155764e+00     1.28345331e+00     9.34192428e-01
 2.06913808e-01     1.02314953e+00     1.28190249e+00     9.35374923e-01
 2.21053608e-01     1.02377001e+00     1.28132499e+00     9.35825602e-01
 2.36159675e-01     1.02436035e+00     1.28077961e+00     9.36233960e-01
 2.52298039e-01     1.02472999e+00     1.28045694e+00     9.36483313e-01
 2.69539246e-01     1.02549299e+00     1.27974303e+00     9.37021456e-01
 2.87958660e-01     1.02613164e+00     1.27915567e+00     9.37470703e-01
 3.07636795e-01     1.02641072e+00     1.27893023e+00     9.37659668e-01
 3.28659667e-01     1.02648682e+00     1.27891020e+00     9.37692511e-01
 3.51119173e-01     1.02673893e+00     1.27871672e+00     9.37854682e-01
 3.75113487e-01     1.02784786e+00     1.27766902e+00     9.38651048e-01
 4.00747492e-01     1.02886581e+00     1.27671507e+00     9.39383174e-01
 4.28133240e-01     1.02976635e+00     1.27588138e+00     9.40029389e-01
 4.57390438e-01     1.03060722e+00     1.27511036e+00     9.40633701e-01
 4.88646976e-01     1.03145378e+00     1.27433677e+00     9.41242920e-01
 5.22039481e-01     1.03227587e+00     1.27359096e+00     9.41833543e-01
 5.57713919e-01     1.03277611e+00     1.27317040e+00     9.42188795e-01
 5.95826229e-01     1.03319942e+00     1.27283037e+00     9.42487913e-01
 6.36543007e-01     1.03363962e+00     1.27247722e+00     9.42797897e-01
 6.80042234e-01     1.03403147e+00     1.27217630e+00     9.43073799e-01
 7.26514053e-01     1.03439430e+00     1.27190848e+00     9.43326890e-01
 7.76161601e-01     1.03451462e+00     1.27188744e+00     9.43404340e-01
 8.29201897e-01     1.03461605e+00     1.27188978e+00     9.43467615e-01
 8.85866790e-01     1.03471437e+00     1.27189990e+00     9.43526966e-01
 9.46403974e-01     1.03481003e+00     1.27191760e+00     9.43583377e-01
 1.01107807e+00     1.03492214e+00     1.27192396e+00     9.43650362e-01
 1.08017177e+00     1.03512111e+00     1.27184876e+00     9.43780165e-01
 1.15398711e+00     1.03534141e+00     1.27175780e+00     9.43923908e-01
 1.23284674e+00     1.03578142e+00     1.27145293e+00     9.44225037e-01
 1.31709538e+00     1.03616443e+00     1.27121108e+00     9.44484271e-01
 1.40710128e+00     1.03617539e+00     1.27134759e+00     9.44474543e-01
 1.50325789e+00     1.03630477e+00     1.27137232e+00     9.44548823e-01
 1.60598553e+00     1.03633809e+00     1.27150014e+00     9.44551643e-01
 1.71573322e+00     1.03650380e+00     1.27150283e+00     9.44647274e-01
 1.83298071e+00     1.03684346e+00     1.27133920e+00     9.44866308e-01
 1.95824050e+00     1.03746644e+00     1.27090009e+00     9.45287354e-01
 2.09206013e+00     1.03815893e+00     1.27039966e+00     9.45756428e-01
 2.23502454e+00     1.03916387e+00     1.26959537e+00     9.46446469e-01
 2.38775867e+00     1.04058012e+00     1.26838862e+00     9.47426590e-01
 2.55093014e+00     1.04292822e+00     1.26625906e+00     9.49064063e-01
 2.72525220e+00     1.04785718e+00     1.26155674e+00     9.52508230e-01
 2.91148685e+00     1.05691752e+00     1.25270099e+00     9.59077562e-01
 3.11044815e+00     1.01296743e+00     1.29693211e+00     9.28158768e-01
 3.32300581e+00     1.01706444e+00     1.29310373e+00     9.30201561e-01
 3.55008895e+00     1.02462602e+00     1.28581601e+00     9.35642781e-01
 3.79269019e+00     1.03000811e+00     1.28071900e+00     9.39517019e-01
 4.05186999e+00     1.03234459e+00     1.27868011e+00     9.41160912e-01
 4.32876128e+00     1.03427438e+00     1.27706084e+00     9.42503210e-01
 4.62457440e+00     1.03488824e+00     1.27677209e+00     9.42885336e-01
 4.94060239e+00     1.03692050e+00     1.27507998e+00     9.44277740e-01
 5.27822669e+00     1.03982179e+00     1.27253227e+00     9.46288077e-01
 5.63892310e+00     1.04270258e+00     1.27001531e+00     9.48294463e-01
 6.02426831e+00     1.04151584e+00     1.27158052e+00     9.47445404e-01
 6.43594672e+00     1.03940975e+00     1.27409380e+00     9.45852146e-01
 6.87575786e+00     1.03963994e+00     1.27428748e+00     9.45912043e-01
 7.34562423e+00     1.04335007e+00     1.27101754e+00     9.48433373e-01
 7.84759970e+00     1.04901234e+00     1.26580266e+00     9.52342894e-01
 8.38387850e+00     1.05233436e+00     1.26292304e+00     9.54728828e-01
 8.95680481e+00     1.05255408e+00     1.26315303e+00     9.55135217e-01
 9.56888299e+00     1.04278466e+00     1.27342831e+00     9.48799699e-01
 1.02227886e+01     1.03684958e+00     1.27991590e+00     9.44732891e-01
 1.09213798e+01     1.02740453e+00     1.28993871e+00     9.38490869e-01
 1.16677105e+01     1.01094065e+00     1.30708566e+00     9.26603906e-01
 1.24650430e+01     1.00159215e+00     1.31713097e+00     9.19146743e-01
 1.33168624e+01     9.97954733e-01     1.32145953e+00     9.15792591e-01
 1.42268924e+01     9.99209263e-01     1.32089577e+00     9.16134009e-01
 1.51991108e+01     1.00078075e+00     1.32003781e+00     9.17041828e-01
 1.62377674e+01     9.97168994e-01     1.32441984e+00     9.14291742e-01
 1.73474023e+01     9.94359953e-01     1.32803393e+00     9.11875416e-01
 1.85328659e+01     9.92317783e-01     1.33091234e+00     9.10019145e-01
 1.97993402e+01     9.89856285e-01     1.33424918e+00     9.07829671e-01
 2.11523611e+01     9.91694542e-01     1.33329870e+00     9.08762343e-01
 2.25978429e+01     9.93877752e-01     1.33204292e+00     9.10078986e-01
 2.41421042e+01     9.95662086e-01     1.33123076e+00     9.11214931e-01
 2.57918951e+01     9.94128507e-01     1.33380333e+00     9.09997968e-01
 2.75544272e+01     9.88961762e-01     1.34008889e+00     9.06044851e-01
 2.94374049e+01     9.82548617e-01     1.34768876e+00     9.01075648e-01
 3.14490590e+01     9.78588952e-01     1.35286165e+00     8.97647377e-01
 3.35981829e+01     9.76513927e-01     1.35618837e+00     8.95657866e-01
 3.58941707e+01     9.75999684e-01     1.35799777e+00     8.94834436e-01
 3.83470586e+01     9.73157098e-01     1.36223125e+00     8.92419241e-01
 4.09675688e+01     9.71672871e-01     1.36514892e+00     8.90878299e-01
 4.37671558e+01     9.69164753e-01     1.36920525e+00     8.88956770e-01
 4.67580574e+01     9.42962580e-01     1.39743600e+00     8.70158793e-01
 4.99533471e+01     9.33908022e-01     1.40802933e+00     8.61794403e-01
 5.33669923e+01     9.38480916e-01     1.40494436e+00     8.64019534e-01
 5.70139146e+01     9.41250540e-01     1.40374242e+00     8.65052324e-01
 6.09100555e+01     9.49837385e-01     1.39690874e+00     8.70577094e-01
 6.50724456e+01     9.46811275e-01     1.40193711e+00     8.67788269e-01
 6.95192796e+01     9.42220578e-01     1.40853641e+00     8.63695071e-01
 7.42699954e+01     9.40246229e-01     1.41248833e+00     8.61372701e-01
 7.93453593e+01     9.41036636e-01     1.41372232e+00     8.61017219e-01
 8.47675566e+01     9.42302659e-01     1.41458684e+00     8.60997898e-01
 9.05602888e+01     9.43996010e-01     1.41512659e+00     8.61256046e-01
 9.67488771e+01     9.45747473e-01     1.41571417e+00     8.61515728e-01
 1.03360373e+02     9.47459436e-01     1.41645192e+00     8.61699047e-01
 1.10423676e+02     9.49134881e-01     1.41733709e+00     8.61802643e-01
 1.17969662e+02     9.50758113e-01     1.41838882e+00     8.61812684e-01
 1.26031315e+02     9.52105104e-01     1.41983200e+00     8.61572569e-01
 1.34643875e+02     9.53191609e-01     1.42163398e+00     8.61102387e-01
 1.43844989e+02     9.54064694e-01     1.42371951e+00     8.60455941e-01
 1.53674876e+02     9.54548285e-01     1.42629473e+00     8.59538522e-01
 1.64176504e+02     9.54331171e-01     1.42966487e+00     8.58181153e-01
 1.75395779e+02     9.53355010e-01     1.43393882e+00     8.56411554e-01
 1.87381742e+02     9.51510568e-01     1.43931998e+00     8.54251928e-01
 2.00186786e+02     9.48593804e-01     1.44620229e+00     8.51680354e-01
 2.13866883e+02     9.43938902e-01     1.45535669e+00     8.48501300e-01
 2.28481833e+02     9.37612014e-01     1.46686746e+00     8.44832887e-01
 2.44095520e+02     9.29392047e-01     1.48075590e+00     8.40655620e-01
 2.60776194e+02     9.19384990e-01     1.49669077e+00     8.36117442e-01
 2.78596770e+02     9.07825225e-01     1.51430599e+00     8.31327337e-01
 2.97635144e+02     8.94839593e-01     1.53383319e+00     8.26328443e-01
 3.17974538e+02     8.80873844e-01     1.55305483e+00     8.20957501e-01
 3.39703857e+02     8.66334819e-01     1.56805960e+00     8.14975279e-01
 3.62918087e+02     8.46835501e-01     1.59275032e+00     8.08147982e-01
 3.87718699e+02     8.22910696e-01     1.61762423e+00     7.99497607e-01
 4.14214102e+02     7.97600518e-01     1.63841729e+00     7.89777945e-01
 4.42520113e+02     7.71306052e-01     1.67139449e+00     7.81735895e-01
 4.72760462e+02     7.35791939e-01     1.69871934e+00     7.69360869e-01
 5.05067336e+02     6.98504415e-01     1.74891577e+00     7.61009917e-01
 5.39581954e+02     6.63219906e-01     1.78462572e+00     7.51825721e-01
 5.76455186e+02     6.30188871e-01     1.83705424e+00     7.47411954e-01
 6.15848211e+02     5.98845256e-01     1.89050440e+00     7.42855806e-01
 6.57933225e+02     5.71531608e-01     1.93119120e+00     7.37916960e-01
 7.02894188e+02     5.49267993e-01     1.98334991e+00     7.34796026e-01
 7.50927633e+02     5.32112211e-01     2.02468694e+00     7.30165564e-01
 8.02243524e+02     5.14006918e-01     2.02654604e+00     7.17344452e-01
 8.57066172e+02     5.01798802e-01     2.04805502e+00     7.09398766e-01
 9.15635217e+02     4.92074121e-01     2.07363456e+00     7.01246960e-01
 9.78206675e+02     4.78676036e-01     2.02557352e+00     6.77209524e-01
 1.04505406e+03     4.63429788e-01     2.03752501e+00     6.65319029e-01
 1.11646957e+03     4.43864119e-01     2.12163816e+00     6.70265303e-01
 1.19276538e+03     4.21807545e-01     2.16384951e+00     6.74472289e-01
 1.27427499e+03     3.96738011e-01     2.14078111e+00     6.61158149e-01
 1.36135469e+03     3.78217456e-01     2.23082057e+00     6.67513323e-01
 1.45438513e+03     3.78643479e-01     2.39117824e+00     6.84126444e-01
 1.55377296e+03     3.81327704e-01     2.40241322e+00     6.80081525e-01
 1.65995263e+03     3.90612410e-01     2.26708996e+00     6.46778040e-01
 1.77338825e+03     3.93080518e-01     2.18503506e+00     6.14969703e-01
 1.89457570e+03     3.80614017e-01     2.29383351e+00     6.16847697e-01
 2.02404468e+03     3.56909579e-01     2.41782454e+00     6.31312953e-01
 2.16236115e+03     3.40690228e-01     2.36320833e+00     6.22246959e-01
 2.31012970e+03     3.39445122e-01     2.22588388e+00     6.03543983e-01
 2.46799626e+03     3.54704070e-01     2.23309975e+00     5.93816299e-01
 2.63665090e+03     3.65347551e-01     2.48145846e+00     6.13845412e-01
 2.81683083e+03     3.77336663e-01     2.60676364e+00     6.16927676e-01
 3.00932366e+03     3.86432079e-01     2.41382897e+00     5.83763582e-01
 3.21497081e+03     3.91763330e-01     2.19126033e+00     5.48449877e-01
 3.43467119e+03     4.00171433e-01     2.34547248e+00     5.66420172e-01
 3.66938517e+03     3.85642019e-01     2.72253588e+00     6.17922457e-01
 3.92013872e+03     3.57158721e-01     2.79742404e+00     6.04183868e-01
 4.18802793e+03     3.09033021e-01     2.56108814e+00     4.88660015e-01
 4.47422380e+03     2.66396912e-01     2.23911803e+00     3.97025594e-01
 4.77997733e+03     2.61198836e-01     2.41524173e+00     3.81404153e-01
 5.10662505e+03     2.18830093e-01     2.87014726e+00     4.92797395e-01
 5.45559478e+03     2.03674081e-01     3.23551436e+00     5.54919092e-01
 5.82841194e+03     2.15398802e-01     3.64600499e+00     6.25575110e-01
 6.22670618e+03     1.83712008e-01     3.40994176e+00     6.07056623e-01
 6.65221852e+03     2.10720304e-01     3.13192758e+00     5.46140297e-01
 7.10680896e+03     1.65165934e-01     2.67138583e+00     4.38350101e-01
 7.59246459e+03     1.60856064e-01     2.17135093e+00     2.89513348e-01
 8.11130831e+03     1.46572655e-01     2.01959233e+00     1.38850672e-01
 8.66560808e+03     1.35554266e-01     2.36755137e+00     8.16861634e-02
 9.25778684e+03     9.69422529e-02     2.42107220e+00     1.37772162e-01
 9.89043313e+03     1.16573992e-01     3.14575500e+00     1.96365944e-01
 1.05663124e+04     9.91261500e-02     3.81218160e+00     2.27174299e-01
 1.12883789e+04     6.33091857e-02     4.15065690e+00     2.55987901e-01
 1.20597891e+04     6.03441370e-02     4.93714786e+00     3.56611104e-01
 1.28839149e+04     7.68724010e-02     5.89013896e+00     4.03682321e-01
 1.37643587e+04     6.61181410e-02     5.74201496e+00     3.85830298e-01
 1.47049691e+04     3.88564141e-02     4.93892100e+00     3.41397147e-01
 1.57098576e+04     2.49759203e-02     4.82636469e+00     3.22688481e-01
 1.67834169e+04     2.60117689e-02     5.34293011e+00     3.30247951e-01
 1.79303397e+04     3.28780291e-02     5.93704871e+00     3.81468311e-01
 1.91556393e+04     3.55187400e-02     5.64557266e+00     4.61155217e-01
 2.04646718e+04     2.88302713e-02     4.32124791e+00     5.09247181e-01
 2.18631593e+04     1.83930241e-02     2.85377591e+00     4.87540003e-01
 2.33572147e+04     1.13729930e-02     1.93936117e+00     4.20200242e-01
 2.49533689e+04     7.66754469e-03     1.40629919e+00     3.48866195e-01
 2.66585989e+04     5.58056992e-03     1.04888627e+00     2.89793142e-01
 2.84803587e+04     4.27034059e-03     7.87997059e-01     2.43335693e-01
 3.04266114e+04     3.38424628e-03     5.92209983e-01     2.06570943e-01
 3.25058646e+04     2.76943854e-03     4.44628073e-01     1.76898039e-01
 3.47272071e+04     2.30479368e-03     3.33651853e-01     1.52480556e-01
 3.71003486e+04     1.94383069e-03     2.50434308e-01     1.32060772e-01
 3.96356627e+04     1.65784754e-03     1.88137690e-01     1.14769638e-01
 4.23442318e+04     1.42795111e-03     1.41522762e-01     9.99897585e-02
 4.52378954e+04     1.24016731e-03     1.06622679e-01     8.72683392e-02
 4.83293024e+04     1.08502800e-03     8.04614602e-02     7.62626645e-02
 5.16319658e+04     9.55592355e-04     6.08192985e-02     6.67058006e-02
 5.51603222e+04     8.46624105e-04     4.60450732e-02     5.83844668e-02
 5.89297947e+04     7.54106587e-04     3.49117054e-02     5.11245224e-02
 6.29568604e+04     6.75140691e-04     2.65066444e-02     4.47814433e-02
 6.72591224e+04     6.07248200e-04     2.01502879e-02     3.92338994e-02
 7.18553866e+04     5.48373654e-04     1.53355043e-02     3.43786045e-02
 7.67657441e+04     4.97020340e-04     1.16830005e-02     3.01269806e-02
 8.20116592e+04     4.51966694e-04     8.90846821e-03     2.64026460e-02
 8.76160625e+04     4.12305203e-04     6.79830158e-03     2.31394137e-02
 9.36034521e+04     3.77312037e-04     5.19166739e-03     2.02797367e-02
 1.00000000e+05     3.46149836e-04     3.96722373e-03     1.77734586e-02
