3
210
 1.00000000e-01     3.87377855e+04     4.08613764e+04     8.74866502e-01
 1.06833667e-01     3.98444530e+04     4.07221583e+04     8.75871407e-01
 1.14134323e-01     4.08660857e+04     4.04597694e+04     8.77808870e-01
 1.21933882e-01     4.17260280e+04     4.05949922e+04     8.74678979e-01
 1.30266437e-01     4.28681944e+04     4.03818275e+04     8.75548775e-01
 1.39168411e-01     4.34649108e+04     4.04097698e+04     8.69386699e-01
 1.48678717e-01     4.43626423e+04     4.09963431e+04     8.63163082e-01
 1.58838925e-01     4.41943499e+04     3.87995092e+04     8.23178714e-01
 1.69693447e-01     4.17857196e+04     3.97300012e+04     7.15322488e-01
 1.81289731e-01     4.03840893e+04     5.23632547e+04     7.34304671e-01
 1.93678467e-01     3.98152869e+04     6.15752108e+04     7.57192251e-01
 2.06913808e-01     3.91156363e+04     7.01505448e+04     7.70177379e-01
 2.21053608e-01     3.81655723e+04     7.64803950e+04     7.71783336e-01
 2.36159675e-01     3.49815499e+04     8.38144044e+04     7.67370333e-01
 2.52298039e-01     3.28419007e+04     9.09521307e+04     7.63385581e-01
 2.69539246e-01     3.02312752e+04     9.42527399e+04     7.48926797e-01
 2.87958660e-01     2.63146117e+04     9.43202486e+04     7.33081688e-01
 3.07636795e-01     2.36280237e+04     9.53400635e+04     7.29858909e-01
 3.28659667e-01     2.09938611e+04     9.64433912e+04     7.23861081e-01
 3.51119173e-01     1.69095021e+04     9.27304672e+04     6.97571600e-01
 3.75113487e-01     1.26742147e+04     8.37690067e+04     6.54078534e-01
 4.00747492e-01     9.70850496e+03     7.71597962e+04     6.17490488e-01
 4.28133240e-01     7.72225551e+03     7.24385164e+04     6.03242087e-01
 4.57390438e-01     6.57830020e+03     6.54117754e+04     6.07039997e-01
 4.88646976e-01     5.84016722e+03     5.49957387e+04     6.09321274e-01
 5.22039481e-01     4.90369480e+03     4.40508705e+04     5.89259654e-01
 5.57713919e-01     4.01664232e+03     3.51724354e+04     5.41765318e-01
 5.95826229e-01     3.27734952e+03     2.84651072e+04     4.77389356e-01
 6.36543007e-01     2.71814941e+03     2.32622274e+04     4.10269185e-01
 6.80042234e-01     2.39509210e+03     1.90143410e+04     3.49558320e-01
 7.26514053e-01     2.17384310e+03     1.54293744e+04     2.97903519e-01
 7.76161601e-01     2.00687492e+03     1.24422457e+04     2.55109545e-01
 8.29201897e-01     1.86180753e+03     9.92281325e+03     2.19518801e-01
 8.85866790e-01     1.65407991e+03     7.83789924e+03     1.89697052e-01
 9.46403974e-01     1.43240850e+03     6.14000437e+03     1.64547665e-01
 1.01107807e+00     1.24859330e+03     4.77539200e+03     1.43178923e-01
 1.08017177e+00     1.11533955e+03     3.68827873e+03     1.24862632e-01
 1.15398711e+00     9.99349571e+02     2.83718735e+03     1.09075998e-01
 1.23284674e+00     9.13820509e+02     2.16747460e+03     9.53521942e-02
 1.31709538e+00     8.69825096e+02     1.65476929e+03     8.34478897e-02
 1.40710128e+00     8.70151828e+02     1.27087101e+03     7.31516915e-02
 1.50325789e+00     8.58423367e+02     9.73167314e+02     6.41266049e-02
 1.60598553e+00     7.93400624e+02     7.46367158e+02     5.62398264e-02
 1.71573322e+00     7.15232094e+02     5.70867701e+02     4.93115937e-02
 1.83298071e+00     6.39410274e+02     4.35174827e+02     4.32191762e-02
 1.95824050e+00     5.81737387e+02     3.29987909e+02     3.78504753e-02
 2.09206013e+00     5.49703026e+02     2.49915978e+02     3.31414633e-02
 2.23502454e+00     5.26110913e+02     1.88191962e+02     2.89913734e-02
 2.38775867e+00     5.20970095e+02     1.40621072e+02     2.53299338e-02
 2.55093014e+00     5.43985858e+02     1.03183432e+02     2.20713962e-02
 2.72525220e+00     6.73657172e+02     7.17703396e+01     1.90914593e-02
 2.91148685e+00     2.56667926e+03     4.43512418e+01     1.61372073e-02
 3.11044815e+00     4.35424884e+03     7.44481469e+01     1.55257163e-02
 3.32300581e+00     1.26979287e+03     5.51038094e+01     1.40290784e-02
 3.55008895e+00     5.29774901e+02     3.78395631e+01     1.20670872e-02
 3.79269019e+00     4.17179359e+02     2.66587620e+01     1.04156786e-02
 4.05186999e+00     4.11250101e+02     1.96953837e+01     9.06954871e-03
 4.32876128e+00     4.32364078e+02     1.46427232e+01     7.90585268e-03
 4.62457440e+00     4.20033253e+02     1.11343771e+01     6.91855049e-03
 4.94060239e+00     3.64785942e+02     8.26122889e+00     6.03066481e-03
 5.27822669e+00     3.75014988e+02     6.02993839e+00     5.24209144e-03
 5.63892310e+00     5.26555777e+02     4.39239750e+00     4.55195223e-03
 6.02426831e+00     7.40014527e+02     3.44560469e+00     3.99200576e-03
 6.43594672e+00     6.79124398e+02     2.75568891e+00     3.52154684e-03
 6.87575786e+00     6.04279074e+02     2.11249084e+00     3.08670724e-03
 7.34562423e+00     5.18924113e+02     1.51944132e+00     2.67940147e-03
 7.84759970e+00     5.61741953e+02     1.04654435e+00     2.30856635e-03
 8.38387850e+00     8.04115007e+02     7.46837527e-01     1.99089578e-03
 8.95680481e+00     1.08544235e+03     5.63477024e-01     1.72090821e-03
 9.56888299e+00     1.41476833e+03     5.16612181e-01     1.51396372e-03
 1.02227886e+01     1.48110796e+03     4.40384706e-01     1.33362163e-03
 1.09213798e+01     1.68930388e+03     3.91016097e-01     1.16713431e-03
 1.16677105e+01     1.75619684e+03     3.84500359e-01     1.05116433e-03
 1.24650430e+01     1.56016702e+03     3.37850791e-01     9.56516519e-04
 1.33168624e+01     1.31431609e+03     2.74069039e-01     8.63951413e-04
 1.42268924e+01     1.08946723e+03     2.09084384e-01     7.68864965e-04
 1.51991108e+01     9.93794361e+02     1.58176592e-01     6.73405750e-04
 1.62377674e+01     9.77049578e+02     1.26964966e-01     5.92874564e-04
 1.73474023e+01     8.84513483e+02     1.01166385e-01     5.26780127e-04
 1.85328659e+01     7.98646392e+02     7.98450871e-02     4.67159588e-04
 1.97993402e+01     7.17057050e+02     6.32718864e-02     4.14980595e-04
 2.11523611e+01     6.22027687e+02     4.78941323e-02     3.65139879e-04
 2.25978429e+01     5.73130310e+02     3.60711966e-02     3.18709184e-04
 2.41421042e+01     5.61345394e+02     2.72485098e-02     2.76746484e-04
 2.57918951e+01     5.76492813e+02     2.13298912e-02     2.41203228e-04
 2.75544272e+01     5.81762629e+02     1.73637959e-02     2.12615038e-04
 2.94374049e+01     5.69958288e+02     1.42904884e-02     1.88709784e-04
 3.14490590e+01     5.15742394e+02     1.14702782e-02     1.68494425e-04
 3.35981829e+01     4.74270075e+02     9.03045007e-03     1.49221597e-04
 3.58941707e+01     4.40497477e+02     7.00566339e-03     1.31343962e-04
 3.83470586e+01     4.29193652e+02     5.54775148e-03     1.15491177e-04
 4.09675688e+01     4.04720064e+02     4.34126527e-03     1.01702847e-04
 4.37671558e+01     4.23170258e+02     3.42273016e-03     8.79925055e-05
 4.67580574e+01     4.68006811e+02     3.24447097e-03     7.92818577e-05
 4.99533471e+01     3.25034226e+02     2.65505093e-03     7.72428763e-05
 5.33669923e+01     2.55640576e+02     1.98617522e-03     6.91346220e-05
 5.70139146e+01     1.98230765e+02     1.50395281e-03     6.17575303e-05
 6.09100555e+01     1.84192886e+02     1.09664623e-03     5.28212091e-05
 6.50724456e+01     1.82107520e+02     8.65843120e-04     4.66064961e-05
 6.95192796e+01     1.62717849e+02     6.89801765e-04     4.18223410e-05
 7.42699954e+01     1.35185371e+02     5.39597797e-04     3.74820141e-05
 7.93453593e+01     1.11335163e+02     4.14851989e-04     3.32355444e-05
 8.47675566e+01     9.32775664e+01     3.18171827e-04     2.93310009e-05
 9.05602888e+01     7.88682658e+01     2.43474551e-04     2.58022339e-05
 9.67488771e+01     6.70882667e+01     1.86298826e-04     2.26672804e-05
 1.03360373e+02     5.74217409e+01     1.42601071e-04     1.98973912e-05
 1.10423676e+02     4.92614315e+01     1.09165737e-04     1.74559129e-05
 1.17969662e+02     4.23881108e+01     8.35633162e-05     1.53051125e-05
 1.26031315e+02     3.67151595e+01     6.40295437e-05     1.34202137e-05
 1.34643875e+02     3.16805667e+01     4.90595649e-05     1.17648467e-05
 1.43844989e+02     2.74364380e+01     3.75590068e-05     1.03057236e-05
 1.53674876e+02     2.39492384e+01     2.87661518e-05     9.02695513e-06
 1.64176504e+02     2.09655116e+01     2.20517169e-05     7.90960633e-06
 1.75395779e+02     1.84115559e+01     1.69148947e-05     6.93200572e-06
 1.87381742e+02     1.61924583e+01     1.29755849e-05     6.07486643e-06
 2.00186786e+02     1.42596057e+01     9.95516729e-06     5.32371704e-06
 2.13866883e+02     1.24748236e+01     7.63751258e-06     4.66526473e-06
 2.28481833e+02     1.09425293e+01     5.86233869e-06     4.08907507e-06
 2.44095520e+02     9.60817760e+00     4.50055501e-06     3.58418780e-06
 2.60776194e+02     8.43916036e+00     3.45487509e-06     3.14137894e-06
 2.78596770e+02     7.43002878e+00     2.65138320e-06     2.75267719e-06
 2.97635144e+02     6.55852119e+00     2.03457222e-06     2.41184335e-06
 3.17974538e+02     5.82091848e+00     1.56194341e-06     2.11364556e-06
 3.39703857e+02     5.17532907e+00     1.19925212e-06     1.85241634e-06
 3.62918087e+02     4.53904363e+00     9.21027481e-07     1.62374463e-06
 3.87718699e+02     3.93987357e+00     7.07516705e-07     1.42348884e-06
 4.14214102e+02     3.43127586e+00     5.43529559e-07     1.49313727e-06
 4.42520113e+02     2.99698782e+00     4.17569668e-07     1.90319261e-06
 4.72760462e+02     2.56588141e+00     3.20498272e-07     2.51084402e-06
 5.05067336e+02     2.19786691e+00     2.45915011e-07     2.19970992e-06
 5.39581954e+02     1.90734153e+00     1.88670902e-07     1.92697441e-06
 5.76455186e+02     1.66381203e+00     1.44753362e-07     1.68801140e-06
 6.15848211e+02     1.45579564e+00     1.11073684e-07     1.47877095e-06
 6.57933225e+02     1.27716587e+00     8.52462165e-08     1.29559747e-06
 7.02894188e+02     1.12460667e+00     6.54236366e-08     1.13503198e-06
 7.50927633e+02     9.93368757e-01     5.02097270e-08     9.94341651e-07
 8.02243524e+02     8.79614282e-01     3.85333926e-08     8.71122987e-07
 8.57066172e+02     7.85941023e-01     2.95757362e-08     7.63261730e-07
 9.15635217e+02     7.01716222e-01     2.27004063e-08     6.68781206e-07
 9.78206675e+02     6.25957816e-01     1.74240426e-08     5.85838724e-07
 1.04505406e+03     5.60718015e-01     1.33755527e-08     5.13271947e-07
 1.11646957e+03     5.02975619e-01     1.02681758e-08     4.49793815e-07
 1.19276538e+03     4.50635023e-01     7.88249828e-09     3.94097415e-07
 1.27427499e+03     4.03224163e-01     6.05152342e-09     3.45191191e-07
 1.36135469e+03     3.60626215e-01     4.64600039e-09     3.02456765e-07
 1.45438513e+03     3.22107448e-01     3.56699574e-09     2.64999888e-07
 1.55377296e+03     2.86762335e-01     2.73809802e-09     2.32168139e-07
 1.65995263e+03     2.54478733e-01     2.10147296e-09     2.03674939e-07
 1.77338825e+03     2.25442779e-01     1.61280766e-09     1.78349926e-07
 1.89457570e+03     1.99408669e-01     1.23772942e-09     1.56207989e-07
 2.02404468e+03     1.76143717e-01     9.50115410e-10     1.37044635e-07
 2.16236115e+03     1.55488698e-01     7.30244383e-10     1.20122607e-07
 2.31012970e+03     1.37202326e-01     5.61240389e-10     1.05021506e-07
 2.46799626e+03     1.21041162e-01     4.31340102e-10     9.21343615e-08
 2.63665090e+03     1.06796615e-01     3.31378647e-10     8.05278348e-08
 2.81683083e+03     9.42977924e-02     2.54189878e-10     7.10950158e-08
 3.00932366e+03     8.32664310e-02     1.94985490e-10     6.22427084e-08
 3.21497081e+03     7.32930516e-02     1.49684238e-10     5.49401565e-08
 3.43467119e+03     6.45645749e-02     1.14906824e-10     4.67725612e-08
 3.66938517e+03     5.69273426e-02     8.82089230e-11     4.17965406e-08
 3.92013872e+03     5.02448054e-02     6.77137784e-11     3.86017189e-08
 4.18802793e+03     4.43962206e-02     5.19800237e-11     3.08350223e-08
 4.47422380e+03     3.92750931e-02     3.99018934e-11     2.87345004e-08
 4.77997733e+03     3.47879370e-02     3.06302265e-11     2.39200225e-08
 5.10662505e+03     3.08545735e-02     2.35130534e-11     2.14153282e-08
 5.45559478e+03     2.74046428e-02     1.80498164e-11     2.08531116e-08
 5.82841194e+03     2.43893198e-02     1.38560793e-11     1.87411767e-08
 6.22670618e+03     2.17620534e-02     1.06369126e-11     1.17734524e-08
 6.65221852e+03     1.94392659e-02     8.16562679e-12     1.34648751e-08
 7.10680896e+03     1.73833074e-02     6.26852148e-12     1.13899975e-08
 7.59246459e+03     1.55608215e-02     4.81218001e-12     8.07708409e-09
 8.11130831e+03     1.39433624e-02     3.69419984e-12     9.90058118e-09
 8.66560808e+03     1.25059988e-02     2.83596191e-12     7.22509157e-09
 9.25778684e+03     1.12211501e-02     2.17712900e-12     4.61362143e-09
 9.89043313e+03     1.00704101e-02     1.67136404e-12     1.07753435e-08
 1.05663124e+04     8.95247950e-03     1.28301056e-12     3.75257932e-09
 1.12883789e+04     7.94473778e-03     9.84911185e-13     8.45511293e-09
 1.20597891e+04     7.05048918e-03     7.56106983e-13     2.60988418e-08
 1.28839149e+04     6.26166003e-03     5.80449234e-13    -4.99416288e-09
 1.37643587e+04     5.56542698e-03     4.45596639e-13    -1.57293219e-08
 1.47049691e+04     4.95067959e-03     3.42074278e-13     1.30477590e-08
 1.57098576e+04     4.40784761e-03     2.62595287e-13     2.51730088e-08
 1.67834169e+04     3.92790334e-03     2.01580583e-13    -4.73582896e-09
 1.79303397e+04     3.50308756e-03     1.54743009e-13    -5.95052934e-10
 1.91556393e+04     3.12689249e-03     1.18788404e-13    -4.31741066e-08
 2.04646718e+04     2.79410240e-03     9.11879747e-14    -1.37061108e-08
 2.18631593e+04     2.49872737e-03     7.00005690e-14    -5.44374075e-08
 2.33572147e+04     2.23637013e-03     5.37360786e-14    -2.39877857e-08
 2.49533689e+04     2.00315279e-03     4.12508070e-14    -4.01166031e-08
 2.66585989e+04     1.79563876e-03     3.16676604e-14    -1.62629450e-08
 2.84803587e+04     1.61089241e-03     2.43108347e-14    -2.92900428e-08
 3.04266114e+04     1.45006739e-03     1.86629350e-14    -3.85264122e-08
 3.25058646e+04     1.31927474e-03     1.43266895e-14    -4.05676538e-09
 3.47272071e+04     1.20172845e-03     1.09979502e-14     2.22348706e-08
 3.71003486e+04     1.09596896e-03     8.44263101e-15     1.22593398e-08
 3.96356627e+04     1.00083234e-03     6.48102869e-15    -4.22976810e-08
 4.23442318e+04     9.15366762e-04     4.97519740e-15     1.74495627e-07
 4.52378954e+04     8.38153484e-04     3.81923721e-15     1.10318607e-07
 4.83293024e+04     7.68319965e-04     2.93185841e-15    -8.13586895e-08
 5.16319658e+04     7.05112126e-04     2.25065844e-15    -1.37324464e-07
 5.51603222e+04     6.47837696e-04     1.72773138e-15    -1.96277730e-07
 5.89297947e+04     5.95865349e-04     1.32630449e-15     2.96421652e-07
 6.29568604e+04     5.48797750e-04     1.01814588e-15    -7.89817236e-09
 6.72591224e+04     5.06100239e-04     7.81586309e-16     3.58583884e-08
 7.18553866e+04     4.67213102e-04     5.99990076e-16     9.52661151e-08
 7.67657441e+04     4.31761655e-04     4.60586563e-16     3.09896269e-07
 8.20116592e+04     3.99394775e-04     3.53572371e-16     8.06253130e-08
 8.76160625e+04     3.69872547e-04     2.71422243e-16    -2.58747667e-07
 9.36034521e+04     3.42993858e-04     2.08359418e-16     6.22399788e-07
 1.00000000e+05     3.18353138e-04     1.59948555e-16     1.45368689e-07
