3
210
 1.00000000e-01     1.78878213e+02     2.51252339e+02     8.98580408e-01
 1.06833667e-01     1.80709180e+02     2.49591995e+02     9.02529097e-01
 1.14134323e-01     1.82504842e+02     2.47958412e+02     9.07751430e-01
 1.21933882e-01     1.82863716e+02     2.47779948e+02     9.07630563e-01
 1.30266437e-01     1.84348073e+02     2.46469298e+02     9.12176653e-01
 1.39168411e-01     1.83935355e+02     2.47075484e+02     9.10299450e-01
 1.48678717e-01     1.83132497e+02     2.48082141e+02     9.05486481e-01
 1.58838925e-01     1.85474507e+02     2.45926507e+02     9.13825705e-01
 1.69693447e-01     1.88888614e+02     2.42716558e+02     9.26961451e-01
 1.81289731e-01     1.90459919e+02     2.41364265e+02     9.32746425e-01
 1.93678467e-01     1.91109729e+02     2.40944980e+02     9.34875516e-01
 2.06913808e-01     1.91527809e+02     2.40768673e+02     9.36056387e-01
 2.21053608e-01     1.91771869e+02     2.40778831e+02     9.36511347e-01
 2.36159675e-01     1.92018034e+02     2.40799773e+02     9.36920241e-01
 2.52298039e-01     1.92229365e+02     2.40867653e+02     9.37165109e-01
 2.69539246e-01     1.92519555e+02     2.40869138e+02     9.37679865e-01
 2.87958660e-01     1.92789927e+02     2.40903597e+02     9.38085943e-01
 3.07636795e-01     1.92993781e+02     2.41018305e+02     9.38205798e-01
 3.28659667e-01     1.93121884e+02     2.41224583e+02     9.38014574e-01
 3.51119173e-01     1.93135873e+02     2.41560617e+02     9.37476041e-01
 3.75113487e-01     1.93125606e+02     2.41936311e+02     9.37066018e-01
 4.00747492e-01     1.92773350e+02     2.42672265e+02     9.35839137e-01
 4.28133240e-01     1.91538829e+02     2.44307992e+02     9.32761202e-01
 4.57390438e-01     1.89820279e+02     2.46429660e+02     9.29167974e-01
 4.88646976e-01     1.88764793e+02     2.47906205e+02     9.27237910e-01
 5.22039481e-01     1.87465349e+02     2.49713257e+02     9.25075950e-01
 5.57713919e-01     1.85921451e+02     2.51664280e+02     9.22542933e-01
 5.95826229e-01     1.83911699e+02     2.54297390e+02     9.19589639e-01
 6.36543007e-01     1.81576888e+02     2.57084319e+02     9.16420518e-01
 6.80042234e-01     1.80579021e+02     2.58475619e+02     9.15158055e-01
 7.26514053e-01     1.80263963e+02     2.59327636e+02     9.14783710e-01
 7.76161601e-01     1.80248920e+02     2.59955787e+02     9.14617931e-01
 8.29201897e-01     1.80240560e+02     2.60589907e+02     9.14342384e-01
 8.85866790e-01     1.78443073e+02     2.63129512e+02     9.11919756e-01
 9.46403974e-01     1.75310776e+02     2.67040300e+02     9.08109560e-01
 1.01107807e+00     1.72171181e+02     2.70921570e+02     9.04597726e-01
 1.08017177e+00     1.69997146e+02     2.73512603e+02     9.02261724e-01
 1.15398711e+00     1.68016701e+02     2.76383232e+02     9.00393949e-01
 1.23284674e+00     1.67163540e+02     2.78869112e+02     8.99856954e-01
 1.31709538e+00     1.68372644e+02     2.77480249e+02     9.00444965e-01
 1.40710128e+00     1.71924082e+02     2.74875269e+02     9.03328814e-01
 1.50325789e+00     1.74816280e+02     2.73993254e+02     9.06141140e-01
 1.60598553e+00     1.74075467e+02     2.73571640e+02     9.04005704e-01
 1.71573322e+00     1.72093405e+02     2.79747564e+02     9.02648606e-01
 1.83298071e+00     1.69556127e+02     2.78795633e+02     8.98281588e-01
 1.95824050e+00     1.68048948e+02     2.86945166e+02     8.98910017e-01
 2.09206013e+00     1.68880978e+02     2.80476832e+02     8.97419869e-01
 2.23502454e+00     1.70912608e+02     2.86659243e+02     9.02207484e-01
 2.38775867e+00     1.75461385e+02     2.76314168e+02     9.04543626e-01
 2.55093014e+00     1.84036886e+02     2.76481185e+02     9.15481116e-01
 2.72525220e+00     2.00677052e+02     2.54406878e+02     9.32284066e-01
 2.91148685e+00     2.17211067e+02     2.41052095e+02     9.56763181e-01
 3.11044815e+00     2.09026067e+02     2.50873640e+02     9.26800656e-01
 3.32300581e+00     2.08990690e+02     2.53021716e+02     9.23870712e-01
 3.55008895e+00     1.92100404e+02     2.74790672e+02     9.03263229e-01
 3.79269019e+00     1.87634948e+02     2.74038397e+02     8.98275478e-01
 4.05186999e+00     1.93929489e+02     2.72487274e+02     9.07072244e-01
 4.32876128e+00     2.03907272e+02     2.70922193e+02     9.19194195e-01
 4.62457440e+00     2.09110740e+02     2.56951182e+02     9.20000290e-01
 4.94060239e+00     2.12302386e+02     2.62192918e+02     9.24162686e-01
 5.27822669e+00     2.21069276e+02     2.55563901e+02     9.33034116e-01
 5.63892310e+00     2.29107584e+02     2.48034009e+02     9.41170751e-01
 6.02426831e+00     2.31477590e+02     2.48355986e+02     9.41024265e-01
 6.43594672e+00     2.32990745e+02     2.48934676e+02     9.38580686e-01
 6.87575786e+00     2.34928562e+02     2.47530505e+02     9.36636647e-01
 7.34562423e+00     2.36519105e+02     2.50894355e+02     9.35554931e-01
 7.84759970e+00     2.39920056e+02     2.52965340e+02     9.39088546e-01
 8.38387850e+00     2.44973480e+02     2.44219812e+02     9.43069183e-01
 8.95680481e+00     2.47294648e+02     2.44347879e+02     9.43427902e-01
 9.56888299e+00     2.46487053e+02     2.45830773e+02     9.35910747e-01
 1.02227886e+01     2.47535400e+02     2.47135892e+02     9.30647402e-01
 1.09213798e+01     2.47471095e+02     2.48864181e+02     9.23095414e-01
 1.16677105e+01     2.47002656e+02     2.53578339e+02     9.10218042e-01
 1.24650430e+01     2.48612972e+02     2.56870082e+02     9.01477133e-01
 1.33168624e+01     2.51478570e+02     2.58539919e+02     8.96448173e-01
 1.42268924e+01     2.55525449e+02     2.58848197e+02     8.94816754e-01
 1.51991108e+01     2.59606745e+02     2.58956822e+02     8.93757520e-01
 1.62377674e+01     2.62423769e+02     2.60069363e+02     8.88823855e-01
 1.73474023e+01     2.65832124e+02     2.61472489e+02     8.84149735e-01
 1.85328659e+01     2.69634629e+02     2.62713269e+02     8.79876816e-01
 1.97993402e+01     2.73501101e+02     2.64028416e+02     8.75025784e-01
 2.11523611e+01     2.78996660e+02     2.63511689e+02     8.72620112e-01
 2.25978429e+01     2.84570979e+02     2.59918534e+02     8.67615902e-01
 2.41421042e+01     2.90122343e+02     2.55993892e+02     8.60203778e-01
 2.57918951e+01     2.93983081e+02     2.55976793e+02     8.51322148e-01
 2.75544272e+01     2.97208981e+02     2.58600612e+02     8.41777453e-01
 2.94374049e+01     3.01078005e+02     2.61078883e+02     8.31021405e-01
 3.14490590e+01     3.05237773e+02     2.62064966e+02     8.17906044e-01
 3.35981829e+01     3.10168761e+02     2.65158691e+02     8.06159012e-01
 3.58941707e+01     3.16617222e+02     2.70473772e+02     7.95502038e-01
 3.83470586e+01     3.19724224e+02     2.76186443e+02     7.81918508e-01
 4.09675688e+01     3.22535258e+02     2.84997640e+02     7.68203705e-01
 4.37671558e+01     3.27075491e+02     2.92723234e+02     7.62522262e-01
 4.67580574e+01     3.28535423e+02     2.87752975e+02     7.39130199e-01
 4.99533471e+01     3.37292474e+02     2.89121473e+02     7.10725447e-01
 5.33669923e+01     3.40998167e+02     3.01608602e+02     6.78828336e-01
 5.70139146e+01     3.38589313e+02     3.34032354e+02     6.37114328e-01
 6.09100555e+01     3.40533214e+02     3.87154727e+02     6.41565218e-01
 6.50724456e+01     3.53665217e+02     3.95866154e+02     6.43632110e-01
 6.95192796e+01     3.59461077e+02     4.06201758e+02     6.25632969e-01
 7.42699954e+01     3.48372202e+02     4.28071196e+02     5.83436189e-01
 7.93453593e+01     3.12266164e+02     4.61969008e+02     5.15955017e-01
 8.47675566e+01     2.75240834e+02     5.05788622e+02     4.55912291e-01
 9.05602888e+01     2.62097658e+02     5.52613815e+02     4.28492343e-01
 9.67488771e+01     2.72601392e+02     5.84747575e+02     4.36959419e-01
 1.03360373e+02     2.83608629e+02     5.74952771e+02     4.70123470e-01
 1.10423676e+02     2.60693963e+02     5.05326014e+02     4.94340780e-01
 1.17969662e+02     2.04354607e+02     4.03127189e+02     4.74705739e-01
 1.26031315e+02     1.48363485e+02     3.10572209e+02     4.17614627e-01
 1.34643875e+02     1.06790394e+02     2.38518916e+02     3.51824559e-01
 1.43844989e+02     7.88084045e+01     1.82572964e+02     2.93305076e-01
 1.53674876e+02     6.01661489e+01     1.39137080e+02     2.45904800e-01
 1.64176504e+02     4.70864941e+01     1.05603775e+02     2.08186955e-01
 1.75395779e+02     3.75742976e+01     7.98715453e+01     1.77814599e-01
 1.87381742e+02     3.04007697e+01     6.02509176e+01     1.52898708e-01
 2.00186786e+02     2.48808413e+01     4.53995591e+01     1.32160746e-01
 2.13866883e+02     2.04035123e+01     3.42022180e+01     1.14668373e-01
 2.28481833e+02     1.69036496e+01     2.57931320e+01     9.98028510e-02
 2.44095520e+02     1.41094621e+01     1.94732053e+01     8.70503050e-02
 2.60776194e+02     1.18476591e+01     1.47179095e+01     7.60351006e-02
 2.78596770e+02     1.00218623e+01     1.11345279e+01     6.64713055e-02
 2.97635144e+02     8.53795193e+00     8.43390366e+00     5.81513906e-02
 3.17974538e+02     7.34402374e+00     6.39960060e+00     5.09137186e-02
 3.39703857e+02     6.35112027e+00     4.86254682e+00     4.45967956e-02
 3.62918087e+02     5.43586684e+00     3.69996842e+00     3.90814252e-02
 3.87718699e+02     4.61774538e+00     2.81896090e+00     3.42595668e-02
 4.14214102e+02     3.94581692e+00     2.14982803e+00     3.00365370e-02
 4.42520113e+02     3.38898103e+00     1.64096939e+00     2.63363090e-02
 4.72760462e+02     2.85854372e+00     1.25227981e+00     2.30803233e-02
 5.05067336e+02     2.41653408e+00     9.55992569e-01     2.02232933e-02
 5.39581954e+02     2.07292650e+00     7.30177505e-01     1.77187112e-02
 5.76455186e+02     1.78990728e+00     5.58007236e-01     1.55242041e-02
 6.15848211e+02     1.55216125e+00     4.26695599e-01     1.36023590e-02
 6.57933225e+02     1.35104495e+00     3.26484001e-01     1.19195114e-02
 7.02894188e+02     1.18147476e+00     2.49897451e-01     1.04447549e-02
 7.50927633e+02     1.03728853e+00     1.91335942e-01     9.15202067e-03
 8.02243524e+02     9.13624962e-01     1.46538596e-01     8.01904764e-03
 8.57066172e+02     8.12524792e-01     1.12270704e-01     7.02663335e-03
 9.15635217e+02     7.22483036e-01     8.60353416e-02     6.15693253e-03
 9.78206675e+02     6.42169203e-01     6.59461133e-02     5.39491437e-03
 1.04505406e+03     5.73429297e-01     5.05619240e-02     4.72742874e-03
 1.11646957e+03     5.12957920e-01     3.87741130e-02     4.14257146e-03
 1.19276538e+03     4.58465409e-01     2.97376181e-02     3.62997199e-03
 1.27427499e+03     4.09359622e-01     2.28113480e-02     3.18089300e-03
 1.36135469e+03     3.65431820e-01     1.75006181e-02     2.78739278e-03
 1.45438513e+03     3.25866861e-01     1.34277470e-02     2.44257711e-03
 1.55377296e+03     2.89693392e-01     1.03017127e-02     2.14018052e-03
 1.65995263e+03     2.56756420e-01     7.90266548e-03     1.87502915e-03
 1.77338825e+03     2.27209727e-01     6.06244361e-03     1.64268170e-03
 1.89457570e+03     2.00777283e-01     4.65081457e-03     1.43908734e-03
 2.02404468e+03     1.77202649e-01     3.56893073e-03     1.26089941e-03
 2.16236115e+03     1.56308444e-01     2.74224886e-03     1.10556348e-03
 2.31012970e+03     1.37836668e-01     2.10707276e-03     9.69346158e-04
 2.46799626e+03     1.21531932e-01     1.61903298e-03     8.49898571e-04
 2.63665090e+03     1.07176223e-01     1.24358937e-03     7.45002481e-04
 2.81683083e+03     9.45913752e-02     9.53755665e-04     6.52718262e-04
 3.00932366e+03     8.34934016e-02     7.31503789e-04     5.71683664e-04
 3.21497081e+03     7.34680680e-02     5.61479652e-04     5.00874758e-04
 3.43467119e+03     6.46996363e-02     4.30977305e-04     4.38833879e-04
 3.66938517e+03     5.70316663e-02     3.30809402e-04     3.84477674e-04
 3.92013872e+03     5.03254709e-02     2.53924423e-04     3.36854526e-04
 4.18802793e+03     4.44586621e-02     1.94908456e-04     2.95129097e-04
 4.47422380e+03     3.93234864e-02     1.49609309e-04     2.58571972e-04
 4.77997733e+03     3.48254898e-02     1.14839113e-04     2.26543563e-04
 5.10662505e+03     3.08837521e-02     8.81508116e-05     1.98483363e-04
 5.45559478e+03     2.74273475e-02     6.76659984e-05     1.73900223e-04
 5.82841194e+03     2.44070237e-02     5.19422713e-05     1.52362844e-04
 6.22670618e+03     2.17758935e-02     3.98732045e-05     1.33494389e-04
 6.65221852e+03     1.94500975e-02     3.06084897e-05     1.16962526e-04
 7.10680896e+03     1.73917937e-02     2.34966517e-05     1.02478299e-04
 7.59246459e+03     1.55674775e-02     1.80373470e-05     8.97879696e-05
 8.11130831e+03     1.39485876e-02     1.38465727e-05     7.86693868e-05
 8.66560808e+03     1.25101051e-02     1.06295418e-05     6.89278209e-05
 9.25778684e+03     1.12243784e-02     8.16002553e-06     6.03928902e-05
 9.89043313e+03     1.00729482e-02     6.26429798e-06     5.29150346e-05
 1.05663124e+04     8.95445658e-03     4.80868588e-06     4.63614095e-05
 1.12883789e+04     7.94627498e-03     3.69137933e-06     4.06198936e-05
 1.20597891e+04     7.05168452e-03     2.83381078e-06     3.55903500e-05
 1.28839149e+04     6.26259017e-03     2.17544622e-06     3.11833589e-05
 1.37643587e+04     5.56615128e-03     1.67002485e-06     2.73219503e-05
 1.47049691e+04     4.95124421e-03     1.28203168e-06     2.39387309e-05
 1.57098576e+04     4.40828801e-03     9.84153604e-07     2.09741175e-05
 1.67834169e+04     3.92824720e-03     7.55479357e-07     1.83765335e-05
 1.79303397e+04     3.50335623e-03     5.79940091e-07     1.61006671e-05
 1.91556393e+04     3.12710254e-03     4.45189111e-07     1.41066725e-05
 2.04646718e+04     2.79426691e-03     3.41748557e-07     1.23596365e-05
 2.18631593e+04     2.49885626e-03     2.62343001e-07     1.08289684e-05
 2.33572147e+04     2.23647118e-03     2.01387634e-07     9.48786957e-06
 2.49533689e+04     2.00323212e-03     1.54596036e-07     8.31288553e-06
 2.66585989e+04     1.79570105e-03     1.18680961e-07     7.28357196e-06
 2.84803587e+04     1.61094139e-03     9.11096209e-08     6.38171881e-06
 3.04266114e+04     1.45010602e-03     6.99429063e-08     5.59150074e-06
 3.25058646e+04     1.31930553e-03     5.36919303e-08     4.89903810e-06
 3.47272071e+04     1.20175303e-03     4.12168144e-08     4.29233139e-06
 3.71003486e+04     1.09598859e-03     3.16402617e-08     3.76077003e-06
 3.96356627e+04     1.00084805e-03     2.42887892e-08     3.29502324e-06
 4.23442318e+04     9.15379338e-04     1.86454040e-08     2.88698380e-06
 4.52378954e+04     8.38163575e-04     1.43132369e-08     2.52944609e-06
 4.83293024e+04     7.68328078e-04     1.09876310e-08     2.21619668e-06
 5.16319658e+04     7.05118654e-04     8.43471618e-09     1.94174707e-06
 5.51603222e+04     6.47842951e-04     6.47495757e-09     1.70128055e-06
 5.89297947e+04     5.95869583e-04     4.97053979e-09     1.49059363e-06
 6.29568604e+04     5.48801163e-04     3.81566570e-09     1.30600575e-06
 6.72591224e+04     5.06103667e-04     2.92912183e-09     1.65938223e-06
 7.18553866e+04     4.67217260e-04     2.24856389e-09     2.59701358e-06
 7.67657441e+04     4.31765052e-04     1.72612445e-09     2.30027992e-06
 8.20116592e+04     3.99397528e-04     1.32507080e-09     2.01606701e-06
 8.76160625e+04     3.69874780e-04     1.01719957e-09     1.76644311e-06
 9.36034521e+04     3.42995672e-04     7.80860176e-10     1.54769605e-06
 1.00000000e+05     3.18354614e-04     5.99432798e-10     1.35597769e-06
