3
210
 1.00000000e-01     2.02294481e+04     2.37583984e+04     8.89219640e-01
 1.06833667e-01     2.07146407e+04     2.36130482e+04     8.91616043e-01
 1.14134323e-01     2.11602515e+04     2.34402031e+04     8.95126777e-01
 1.21933882e-01     2.14864349e+04     2.34692661e+04     8.93532541e-01
 1.30266437e-01     2.19368150e+04     2.33552262e+04     8.96218850e-01
 1.39168411e-01     2.21643805e+04     2.34218170e+04     8.92710925e-01
 1.48678717e-01     2.24127682e+04     2.36575986e+04     8.86034755e-01
 1.58838925e-01     2.28687058e+04     2.33270853e+04     8.84748721e-01
 1.69693447e-01     2.29124978e+04     2.49228377e+04     8.93058136e-01
 1.81289731e-01     2.32955449e+04     2.62648304e+04     8.98178952e-01
 1.93678467e-01     2.37836752e+04     2.46722830e+04     8.85251736e-01
 2.06913808e-01     2.40847288e+04     2.27208704e+04     8.60853958e-01
 2.21053608e-01     2.42252694e+04     2.15385402e+04     8.29031341e-01
 2.36159675e-01     2.37529482e+04     2.12419852e+04     7.84176685e-01
 2.52298039e-01     2.33199826e+04     2.24132162e+04     7.46848847e-01
 2.69539246e-01     2.22113539e+04     2.54879520e+04     7.20806605e-01
 2.87958660e-01     2.11815950e+04     3.06149333e+04     7.13997290e-01
 3.07636795e-01     1.98960835e+04     3.64186832e+04     7.18340626e-01
 3.28659667e-01     1.77906674e+04     4.38692304e+04     7.18577787e-01
 3.51119173e-01     1.51589155e+04     5.28525545e+04     7.16587037e-01
 3.75113487e-01     1.27914943e+04     6.00276439e+04     7.20357950e-01
 4.00747492e-01     1.03875031e+04     6.56583622e+04     7.27890034e-01
 4.28133240e-01     8.47113358e+03     7.10013653e+04     7.30119104e-01
 4.57390438e-01     7.01873363e+03     7.07811062e+04     7.15924130e-01
 4.88646976e-01     5.92438915e+03     6.75580112e+04     7.09095139e-01
 5.22039481e-01     5.27352282e+03     6.60799412e+04     7.15625860e-01
 5.57713919e-01     4.91235643e+03     6.30726766e+04     7.14826259e-01
 5.95826229e-01     4.29503399e+03     5.66175129e+04     6.91264882e-01
 6.36543007e-01     3.55735557e+03     4.97314482e+04     6.52795427e-01
 6.80042234e-01     3.16119674e+03     4.49183830e+04     6.21302385e-01
 7.26514053e-01     3.05152960e+03     4.12392582e+04     6.09487461e-01
 7.76161601e-01     3.04169191e+03     3.69798079e+04     6.12143133e-01
 8.29201897e-01     2.94649270e+03     3.15165394e+04     6.13684014e-01
 8.85866790e-01     2.60530979e+03     2.58051781e+04     5.96842700e-01
 9.46403974e-01     2.16948816e+03     2.08402303e+04     5.54730928e-01
 1.01107807e+00     1.80092064e+03     1.69446482e+04     4.94125483e-01
 1.08017177e+00     1.54265666e+03     1.38903075e+04     4.27797237e-01
 1.15398711e+00     1.34164946e+03     1.14117379e+04     3.65614122e-01
 1.23284674e+00     1.20048382e+03     9.27493678e+03     3.11502246e-01
 1.31709538e+00     1.12387241e+03     7.46518758e+03     2.66318852e-01
 1.40710128e+00     1.10881994e+03     5.98263351e+03     2.29104737e-01
 1.50325789e+00     1.07865967e+03     4.73422451e+03     1.97861176e-01
 1.60598553e+00     9.83377156e+02     3.72401871e+03     1.71528629e-01
 1.71573322e+00     8.73660154e+02     2.90121946e+03     1.49106518e-01
 1.83298071e+00     7.69139288e+02     2.23999300e+03     1.29881870e-01
 1.95824050e+00     6.88644329e+02     1.71255053e+03     1.13275391e-01
 2.09206013e+00     6.40498108e+02     1.30361920e+03     9.89240882e-02
 2.23502454e+00     6.03517676e+02     9.84322897e+02     8.64050396e-02
 2.38775867e+00     5.88586684e+02     7.36170417e+02     7.54413695e-02
 2.55093014e+00     6.05286984e+02     5.39711854e+02     6.57365759e-02
 2.72525220e+00     7.36941961e+02     3.73976598e+02     5.69111370e-02
 2.91148685e+00     2.73011664e+03     2.27524930e+02     4.83652614e-02
 3.11044815e+00     4.72906304e+03     3.90551649e+02     4.65019949e-02
 3.32300581e+00     1.38336205e+03     2.92279329e+02     4.18272344e-02
 3.55008895e+00     5.69897049e+02     2.00059892e+02     3.59619041e-02
 3.79269019e+00     4.43714607e+02     1.40442296e+02     3.10621843e-02
 4.05186999e+00     4.33781019e+02     1.03546064e+02     2.70671187e-02
 4.32876128e+00     4.52810601e+02     7.68532450e+01     2.36105278e-02
 4.62457440e+00     4.37428562e+02     5.83820107e+01     2.06733880e-02
 4.94060239e+00     3.77839895e+02     4.32648962e+01     1.80299635e-02
 5.27822669e+00     3.86461587e+02     3.15374934e+01     1.56813722e-02
 5.63892310e+00     5.40141893e+02     2.29432288e+01     1.36251010e-02
 6.02426831e+00     7.56775782e+02     1.79902599e+01     1.19541895e-02
 6.43594672e+00     6.93011217e+02     1.43894673e+01     1.05476814e-02
 6.87575786e+00     6.15160884e+02     1.10276473e+01     9.24764357e-03
 7.34562423e+00     5.26853389e+02     7.92631215e+00     8.02984561e-03
 7.84759970e+00     5.68779601e+02     5.45447913e+00     6.92099388e-03
 8.38387850e+00     8.12362365e+02     3.88968074e+00     5.97063801e-03
 8.95680481e+00     1.09467804e+03     2.93343030e+00     5.16226438e-03
 9.56888299e+00     1.42581303e+03     2.69020291e+00     4.54179591e-03
 1.02227886e+01     1.49169342e+03     2.29374486e+00     4.00097614e-03
 1.09213798e+01     1.70027376e+03     2.03688446e+00     3.50166844e-03
 1.16677105e+01     1.76780526e+03     2.00421344e+00     3.15346977e-03
 1.24650430e+01     1.57043509e+03     1.76178068e+00     2.86949474e-03
 1.33168624e+01     1.32249629e+03     1.42932602e+00     2.59198152e-03
 1.42268924e+01     1.09557106e+03     1.09028113e+00     2.30694876e-03
 1.51991108e+01     9.98658979e+02     8.24645260e-01     2.02071369e-03
 1.62377674e+01     9.81339396e+02     6.61855624e-01     1.77915275e-03
 1.73474023e+01     8.88037126e+02     5.27330403e-01     1.58079113e-03
 1.85328659e+01     8.01512399e+02     4.16154334e-01     1.40170310e-03
 1.97993402e+01     7.19382171e+02     3.29747078e-01     1.24517444e-03
 2.11523611e+01     6.23799341e+02     2.49571757e-01     1.09572411e-03
 2.25978429e+01     5.74546155e+02     1.87938569e-01     9.56469779e-04
 2.41421042e+01     5.62540643e+02     1.41953239e-01     8.30594036e-04
 2.57918951e+01     5.77568509e+02     1.11110516e-01     7.23958988e-04
 2.75544272e+01     5.82741919e+02     9.04466839e-02     6.38181018e-04
 2.94374049e+01     5.70835479e+02     7.44358811e-02     5.66488826e-04
 3.14490590e+01     5.16466518e+02     5.97439753e-02     5.05890347e-04
 3.35981829e+01     4.74867013e+02     4.70337242e-02     4.48091121e-04
 3.58941707e+01     4.40988039e+02     3.64860760e-02     3.94405446e-04
 3.83470586e+01     4.29619455e+02     2.88919838e-02     3.46798891e-04
 4.09675688e+01     4.05076693e+02     2.26078798e-02     3.05393781e-04
 4.37671558e+01     4.23496285e+02     1.78237500e-02     2.64220554e-04
 4.67580574e+01     4.68364539e+02     1.68957750e-02     2.38057311e-04
 4.99533471e+01     3.25281444e+02     1.38262787e-02     2.31944795e-04
 5.33669923e+01     2.55811946e+02     1.03426758e-02     2.07600479e-04
 5.70139146e+01     1.98348383e+02     7.83132697e-03     1.85449767e-04
 6.09100555e+01     1.84284539e+02     5.71019570e-03     1.58613865e-04
 6.50724456e+01     1.82188427e+02     4.50832088e-03     1.39951346e-04
 6.95192796e+01     1.62783613e+02     3.59164165e-03     1.25585396e-04
 7.42699954e+01     1.35234591e+02     2.80951719e-03     1.12552329e-04
 7.93453593e+01     1.11371060e+02     2.15996811e-03     9.98008526e-05
 8.47675566e+01     9.33040629e+01     1.65656777e-03     8.80760102e-05
 9.05602888e+01     7.88879300e+01     1.26763744e-03     7.74795501e-05
 9.67488771e+01     6.71029333e+01     9.69943273e-04     6.80656729e-05
 1.03360373e+02     5.74327420e+01     7.42428059e-04     5.97480656e-05
 1.10423676e+02     4.92696989e+01     5.68347414e-04     5.24166583e-05
 1.17969662e+02     4.23943392e+01     4.35050475e-04     4.59581391e-05
 1.26031315e+02     3.67198855e+01     3.33350632e-04     4.02980913e-05
 1.34643875e+02     3.16841379e+01     2.55412328e-04     3.53273130e-05
 1.43844989e+02     2.74391442e+01     1.95537418e-04     3.09458304e-05
 1.53674876e+02     2.39513052e+01     1.49759869e-04     2.71059293e-05
 1.64176504e+02     2.09670963e+01     1.14803275e-04     2.37507524e-05
 1.75395779e+02     1.84127749e+01     8.80601830e-05     2.08152154e-05
 1.87381742e+02     1.61933974e+01     6.75516289e-05     1.82414086e-05
 2.00186786e+02     1.42603304e+01     5.18270184e-05     1.59858580e-05
 2.13866883e+02     1.24753790e+01     3.97611138e-05     1.40086773e-05
 2.28481833e+02     1.09429562e+01     3.05194417e-05     1.22785067e-05
 2.44095520e+02     9.60850627e+00     2.34299268e-05     1.07624660e-05
 2.60776194e+02     8.43941321e+00     1.79860791e-05     9.43280459e-06
 2.78596770e+02     7.43022385e+00     1.38030800e-05     8.26562570e-06
 2.97635144e+02     6.55867210e+00     1.05919538e-05     7.24217536e-06
 3.17974538e+02     5.82103586e+00     8.13144616e-06     6.34676668e-06
 3.39703857e+02     5.17542050e+00     6.24327615e-06     5.56231281e-06
 3.62918087e+02     4.53911391e+00     4.79484186e-06     4.87568007e-06
 3.87718699e+02     3.93992708e+00     3.68330820e-06     4.27439515e-06
 4.14214102e+02     3.43131457e+00     2.82959388e-06     3.74724309e-06
 4.42520113e+02     2.99701285e+00     2.17384848e-06     3.28510804e-06
 4.72760462e+02     2.56589458e+00     1.66849603e-06     2.87843212e-06
 5.05067336e+02     2.19787675e+00     1.28021960e-06     2.52158313e-06
 5.39581954e+02     1.90734904e+00     9.82209901e-07     2.20878280e-06
 5.76455186e+02     1.66381775e+00     7.53577650e-07     1.93475367e-06
 6.15848211e+02     1.45580007e+00     5.78243145e-07     1.69483839e-06
 6.57933225e+02     1.27716926e+00     4.43786814e-07     1.48482302e-06
 7.02894188e+02     1.12460929e+00     3.40591604e-07     1.30080515e-06
 7.50927633e+02     9.93372613e-01     2.61389140e-07     1.85277556e-06
 8.02243524e+02     8.79618776e-01     2.00602975e-07     2.28176194e-06
 8.57066172e+02     7.85945126e-01     1.53969898e-07     2.29190419e-06
 9.15635217e+02     7.01719410e-01     1.18177211e-07     2.00794079e-06
 9.78206675e+02     6.25960308e-01     9.07086909e-08     1.75921297e-06
 1.04505406e+03     5.60719974e-01     6.96324381e-08     1.54139787e-06
 1.11646957e+03     5.02977156e-01     5.34555820e-08     1.35050914e-06
 1.19276538e+03     4.50636229e-01     4.10358627e-08     1.18332406e-06
 1.27427499e+03     4.03225105e-01     3.15039003e-08     1.03684564e-06
 1.36135469e+03     3.60626948e-01     2.41868212e-08     9.08485820e-07
 1.45438513e+03     3.22108027e-01     1.85695793e-08     7.95951951e-07
 1.55377296e+03     2.86762785e-01     1.42543832e-08     6.97397776e-07
 1.65995263e+03     2.54479081e-01     1.09401481e-08     6.10920943e-07
 1.77338825e+03     2.25443053e-01     8.39618344e-09     5.35360636e-07
 1.89457570e+03     1.99408888e-01     6.44354738e-09     4.68940762e-07
 2.02404468e+03     1.76143883e-01     4.94624505e-09     4.10875965e-07
 2.16236115e+03     1.55488830e-01     3.80160935e-09     3.60236710e-07
 2.31012970e+03     1.37202427e-01     2.92178434e-09     3.15671051e-07
 2.46799626e+03     1.21041240e-01     2.24553103e-09     2.76711404e-07
 2.63665090e+03     1.06796675e-01     1.72513753e-09     2.42579107e-07
 2.81683083e+03     9.42978391e-02     1.32329736e-09     2.12500079e-07
 3.00932366e+03     8.32664671e-02     1.01508279e-09     1.86193563e-07
 3.21497081e+03     7.32930797e-02     7.79247175e-10     1.63252610e-07
 3.43467119e+03     6.45645958e-02     5.98198012e-10     1.42805795e-07
 3.66938517e+03     5.69273594e-02     4.59210348e-10     1.25091627e-07
 3.92013872e+03     5.02448183e-02     3.52513847e-10     1.09353873e-07
 4.18802793e+03     4.43962306e-02     2.70604868e-10     9.56735915e-08
 4.47422380e+03     3.92751010e-02     2.07726849e-10     8.44654007e-08
 4.77997733e+03     3.47879434e-02     1.59459106e-10     7.36109054e-08
 5.10662505e+03     3.08545781e-02     1.22407532e-10     6.51500572e-08
 5.45559478e+03     2.74046462e-02     9.39662489e-11     5.71135542e-08
 5.82841194e+03     2.43893226e-02     7.21339088e-11     4.92005551e-08
 6.22670618e+03     2.17620556e-02     5.53751216e-11     4.34717714e-08
 6.65221852e+03     1.94392674e-02     4.25097553e-11     3.75717711e-08
 7.10680896e+03     1.73833087e-02     3.26335420e-11     3.23011642e-08
 7.59246459e+03     1.55608226e-02     2.50519169e-11     2.86736465e-08
 8.11130831e+03     1.39433632e-02     1.92317797e-11     2.38907666e-08
 8.66560808e+03     1.25059994e-02     1.47638451e-11     2.34246496e-08
 9.25778684e+03     1.12211507e-02     1.13340010e-11     1.69608737e-08
 9.89043313e+03     1.00704105e-02     8.70101948e-12     1.53013024e-08
 1.05663124e+04     8.95247983e-03     6.67927481e-12     1.45537404e-08
 1.12883789e+04     7.94473794e-03     5.12738753e-12     1.12484998e-08
 1.20597891e+04     7.05048936e-03     3.93624685e-12     1.02560047e-08
 1.28839149e+04     6.26166019e-03     3.02178340e-12     1.00142930e-08
 1.37643587e+04     5.56542708e-03     2.31974900e-12     9.98873830e-09
 1.47049691e+04     4.95067970e-03     1.78081785e-12     1.23857626e-08
 1.57098576e+04     4.40784770e-03     1.36705505e-12     3.48724100e-09
 1.67834169e+04     3.92790338e-03     1.04941624e-12     7.67626744e-09
 1.79303397e+04     3.50308761e-03     8.05582677e-13     1.25212032e-09
 1.91556393e+04     3.12689246e-03     6.18405162e-13    -4.48377633e-09
 2.04646718e+04     2.79410243e-03     4.74719043e-13    -8.31065860e-09
 2.18631593e+04     2.49872736e-03     3.64418699e-13     1.23833628e-08
 2.33572147e+04     2.23637013e-03     2.79746754e-13    -3.46281678e-09
 2.49533689e+04     2.00315280e-03     2.14749195e-13     1.01501704e-09
 2.66585989e+04     1.79563877e-03     1.64859917e-13     1.72765965e-08
 2.84803587e+04     1.61089242e-03     1.26560730e-13     1.98299480e-08
 3.04266114e+04     1.45006740e-03     9.71581057e-14    -7.24012279e-11
 3.25058646e+04     1.31927475e-03     7.45838710e-14    -3.05745121e-09
 3.47272071e+04     1.20172846e-03     5.72546565e-14    -5.84895043e-09
 3.71003486e+04     1.09596896e-03     4.39518227e-14     2.51266258e-08
 3.96356627e+04     1.00083234e-03     3.37398444e-14     6.26176017e-08
 4.23442318e+04     9.15366760e-04     2.59005686e-14    -1.99288572e-08
 4.52378954e+04     8.38153485e-04     1.98827136e-14    -1.26328572e-08
 4.83293024e+04     7.68319967e-04     1.52630780e-14     3.53111729e-08
 5.16319658e+04     7.05112123e-04     1.17167915e-14    -9.16512852e-08
 5.51603222e+04     6.47837694e-04     8.99446565e-15     1.56933532e-09
 5.89297947e+04     5.95865361e-04     6.90465793e-15    -4.71983980e-08
 6.29568604e+04     5.48797751e-04     5.30040564e-15     4.35110476e-08
 6.72591224e+04     5.06100240e-04     4.06889012e-15    -1.02197223e-07
 7.18553866e+04     4.67213102e-04     3.12351128e-15    -1.87429975e-08
 7.67657441e+04     4.31761658e-04     2.39778484e-15     7.16108251e-08
 8.20116592e+04     3.99394771e-04     1.84067596e-15    -5.09610288e-08
 8.76160625e+04     3.69872546e-04     1.41300840e-15     2.20972956e-07
 9.36034521e+04     3.42993860e-04     1.08470589e-15     1.81376493e-07
 1.00000000e+05     3.18353138e-04     8.32681973e-16    -3.09584951e-07
