3
210
 1.00000000e-01     1.16100735e+02     1.62995423e+02     8.98385770e-01
 1.06833667e-01     1.17267859e+02     1.61911085e+02     9.02343028e-01
 1.14134323e-01     1.18416194e+02     1.60842331e+02     9.07576174e-01
 1.21933882e-01     1.18629562e+02     1.60716838e+02     9.07453735e-01
 1.30266437e-01     1.19575258e+02     1.59856604e+02     9.12009896e-01
 1.39168411e-01     1.19289540e+02     1.60236765e+02     9.10124686e-01
 1.48678717e-01     1.18745277e+02     1.60880487e+02     9.05300473e-01
 1.58838925e-01     1.20248429e+02     1.59469546e+02     9.13663096e-01
 1.69693447e-01     1.22445576e+02     1.57372688e+02     9.26837021e-01
 1.81289731e-01     1.23442982e+02     1.56482703e+02     9.32637649e-01
 1.93678467e-01     1.23840732e+02     1.56198026e+02     9.34771424e-01
 2.06913808e-01     1.24086928e+02     1.56070380e+02     9.35956160e-01
 2.21053608e-01     1.24218933e+02     1.56062940e+02     9.36414659e-01
 2.36159675e-01     1.24351206e+02     1.56061437e+02     9.36831014e-01
 2.52298039e-01     1.24459985e+02     1.56089358e+02     9.37087204e-01
 2.69539246e-01     1.24619669e+02     1.56072466e+02     9.37623071e-01
 2.87958660e-01     1.24767181e+02     1.56074191e+02     9.38063414e-01
 3.07636795e-01     1.24873143e+02     1.56124215e+02     9.38233257e-01
 3.28659667e-01     1.24947610e+02     1.56213413e+02     9.38185977e-01
 3.51119173e-01     1.25005888e+02     1.56326520e+02     9.38047213e-01
 3.75113487e-01     1.25112948e+02     1.56397908e+02     9.38260062e-01
 4.00747492e-01     1.25104295e+02     1.56592466e+02     9.37954074e-01
 4.28133240e-01     1.24805688e+02     1.57086679e+02     9.36488587e-01
 4.57390438e-01     1.24314738e+02     1.57787071e+02     9.34460805e-01
 4.88646976e-01     1.24032033e+02     1.58279314e+02     9.33384894e-01
 5.22039481e-01     1.23636566e+02     1.58883106e+02     9.32074251e-01
 5.57713919e-01     1.23098707e+02     1.59649313e+02     9.30335524e-01
 5.95826229e-01     1.22383644e+02     1.60613723e+02     9.28189605e-01
 6.36543007e-01     1.21529843e+02     1.61733608e+02     9.25817892e-01
 6.80042234e-01     1.21176274e+02     1.62370103e+02     9.24836380e-01
 7.26514053e-01     1.21045909e+02     1.62765226e+02     9.24435918e-01
 7.76161601e-01     1.21008066e+02     1.63081022e+02     9.24174336e-01
 8.29201897e-01     1.20981278e+02     1.63368551e+02     9.23902606e-01
 8.85866790e-01     1.20199963e+02     1.64502246e+02     9.21986072e-01
 9.46403974e-01     1.18793799e+02     1.66218452e+02     9.18843985e-01
 1.01107807e+00     1.17263257e+02     1.68050708e+02     9.15596777e-01
 1.08017177e+00     1.16183527e+02     1.69501499e+02     9.13433700e-01
 1.15398711e+00     1.15093481e+02     1.70954120e+02     9.11367226e-01
 1.23284674e+00     1.14528835e+02     1.71951727e+02     9.10464800e-01
 1.31709538e+00     1.14998409e+02     1.71888307e+02     9.11278641e-01
 1.40710128e+00     1.16627836e+02     1.70752205e+02     9.13821630e-01
 1.50325789e+00     1.17866773e+02     1.69940078e+02     9.15761331e-01
 1.60598553e+00     1.17403722e+02     1.70800402e+02     9.14570837e-01
 1.71573322e+00     1.16228888e+02     1.72456735e+02     9.12291723e-01
 1.83298071e+00     1.14744919e+02     1.74796683e+02     9.09829824e-01
 1.95824050e+00     1.13805402e+02     1.75917177e+02     9.08199997e-01
 2.09206013e+00     1.14003658e+02     1.75989282e+02     9.08505856e-01
 2.23502454e+00     1.14710435e+02     1.76738611e+02     9.10462354e-01
 2.38775867e+00     1.16682821e+02     1.74510566e+02     9.13783468e-01
 2.55093014e+00     1.20544794e+02     1.71217294e+02     9.20827232e-01
 2.72525220e+00     1.28730969e+02     1.64274652e+02     9.37259751e-01
 2.91148685e+00     1.36956960e+02     1.55971101e+02     9.58005777e-01
 3.11044815e+00     1.31678289e+02     1.62115085e+02     9.28044552e-01
 3.32300581e+00     1.31947288e+02     1.62902901e+02     9.26472658e-01
 3.55008895e+00     1.22965146e+02     1.71960148e+02     9.08830241e-01
 3.79269019e+00     1.20015754e+02     1.76844597e+02     9.05185566e-01
 4.05186999e+00     1.22622611e+02     1.74521146e+02     9.09617272e-01
 4.32876128e+00     1.26764288e+02     1.72140989e+02     9.17631962e-01
 4.62457440e+00     1.28282987e+02     1.69704885e+02     9.18540188e-01
 4.94060239e+00     1.27537558e+02     1.73579018e+02     9.18255901e-01
 5.27822669e+00     1.32023326e+02     1.68530483e+02     9.25160085e-01
 5.63892310e+00     1.40217597e+02     1.61975920e+02     9.40478780e-01
 6.02426831e+00     1.42683771e+02     1.60610816e+02     9.43364908e-01
 6.43594672e+00     1.43313097e+02     1.61068339e+02     9.41325832e-01
 6.87575786e+00     1.44405860e+02     1.60773523e+02     9.40868063e-01
 7.34562423e+00     1.46215924e+02     1.60786683e+02     9.43299670e-01
 7.84759970e+00     1.48401557e+02     1.59728635e+02     9.47080190e-01
 8.38387850e+00     1.49893193e+02     1.58870527e+02     9.48768923e-01
 8.95680481e+00     1.50764430e+02     1.58480156e+02     9.48565811e-01
 9.56888299e+00     1.50175421e+02     1.59690049e+02     9.41777924e-01
 1.02227886e+01     1.50516339e+02     1.60617324e+02     9.37135429e-01
 1.09213798e+01     1.50268572e+02     1.61953151e+02     9.30339630e-01
 1.16677105e+01     1.49522411e+02     1.64874087e+02     9.18159155e-01
 1.24650430e+01     1.49961224e+02     1.66775376e+02     9.10140335e-01
 1.33168624e+01     1.51173987e+02     1.67706260e+02     9.05910348e-01
 1.42268924e+01     1.53092993e+02     1.67812736e+02     9.05081281e-01
 1.51991108e+01     1.55054798e+02     1.67748805e+02     9.04700616e-01
 1.62377674e+01     1.56295913e+02     1.68436016e+02     9.00730052e-01
 1.73474023e+01     1.57806035e+02     1.69131914e+02     8.96935026e-01
 1.85328659e+01     1.59503706e+02     1.69694971e+02     8.93513133e-01
 1.97993402e+01     1.61221638e+02     1.70320843e+02     8.89586713e-01
 2.11523611e+01     1.63709120e+02     1.70181210e+02     8.88351482e-01
 2.25978429e+01     1.66322878e+02     1.69906657e+02     8.87423847e-01
 2.41421042e+01     1.68964276e+02     1.69949278e+02     8.86635390e-01
 2.57918951e+01     1.71128154e+02     1.70407661e+02     8.83315293e-01
 2.75544272e+01     1.72793851e+02     1.71317228e+02     8.76785725e-01
 2.94374049e+01     1.74377921e+02     1.72514565e+02     8.68956251e-01
 3.14490590e+01     1.76580524e+02     1.73623843e+02     8.62589431e-01
 3.35981829e+01     1.79194260e+02     1.74211665e+02     8.57223090e-01
 3.58941707e+01     1.82228875e+02     1.74121188e+02     8.52321691e-01
 3.83470586e+01     1.84900130e+02     1.74011180e+02     8.44727042e-01
 4.09675688e+01     1.87896363e+02     1.73573652e+02     8.37109601e-01
 4.37671558e+01     1.90612556e+02     1.73571842e+02     8.28053610e-01
 4.67580574e+01     1.88910094e+02     1.79377803e+02     8.04946172e-01
 4.99533471e+01     1.90831081e+02     1.81783769e+02     7.92110390e-01
 5.33669923e+01     1.95797675e+02     1.79066397e+02     7.86355225e-01
 5.70139146e+01     2.01090058e+02     1.74022371e+02     7.75518034e-01
 6.09100555e+01     2.07150267e+02     1.67572996e+02     7.53343196e-01
 6.50724456e+01     2.09838440e+02     1.70632599e+02     7.33779274e-01
 6.95192796e+01     2.13888435e+02     1.73103656e+02     7.14062243e-01
 7.42699954e+01     2.18974035e+02     1.75484616e+02     6.90332601e-01
 7.93453593e+01     2.21227051e+02     1.82526423e+02     6.55923328e-01
 8.47675566e+01     2.18528524e+02     2.01950522e+02     6.07161672e-01
 9.05602888e+01     2.11572577e+02     2.40356012e+02     5.67199358e-01
 9.67488771e+01     2.07953672e+02     2.88429986e+02     5.61871738e-01
 1.03360373e+02     2.12857443e+02     3.30087004e+02     5.77285651e-01
 1.10423676e+02     2.10962618e+02     3.57945639e+02     5.64773780e-01
 1.17969662e+02     1.82303722e+02     3.75449053e+02     5.06177635e-01
 1.26031315e+02     1.46445000e+02     3.95852810e+02     4.40923004e-01
 1.34643875e+02     1.28157412e+02     4.26935911e+02     4.05865908e-01
 1.43844989e+02     1.32033410e+02     4.58477244e+02     4.12358093e-01
 1.53674876e+02     1.43390777e+02     4.63483919e+02     4.53395667e-01
 1.64176504e+02     1.38315718e+02     4.15717597e+02     4.96571678e-01
 1.75395779e+02     1.11916568e+02     3.30670614e+02     4.99656883e-01
 1.87381742e+02     8.02708367e+01     2.47369669e+02     4.54844558e-01
 2.00186786e+02     5.61971345e+01     1.84752755e+02     3.87833991e-01
 2.13866883e+02     4.03303320e+01     1.39751804e+02     3.23212435e-01
 2.28481833e+02     3.01600448e+01     1.06209822e+02     2.69847884e-01
 2.44095520e+02     2.32583387e+01     8.05878233e+01     2.27371816e-01
 2.60776194e+02     1.83265525e+01     6.09422580e+01     1.93392450e-01
 2.78596770e+02     1.47006915e+01     4.59471500e+01     1.65753414e-01
 2.97635144e+02     1.19681338e+01     3.45882349e+01     1.42918815e-01
 3.17974538e+02     9.89778269e+00     2.60417094e+01     1.23826711e-01
 3.39703857e+02     8.26946694e+00     1.96182884e+01     1.07645940e-01
 3.62918087e+02     6.86617360e+00     1.47988342e+01     9.38190802e-02
 3.87718699e+02     5.67825799e+00     1.11800718e+01     8.19222859e-02
 4.14214102e+02     4.73758414e+00     8.45777833e+00     7.16254216e-02
 4.42520113e+02     3.98361069e+00     6.40745128e+00     6.26803603e-02
 4.72760462e+02     3.29698783e+00     4.85590685e+00     5.48552526e-02
 5.05067336e+02     2.74056751e+00     3.68362460e+00     4.80197323e-02
 5.39581954e+02     2.31596829e+00     2.79748610e+00     4.20469660e-02
 5.76455186e+02     1.97345620e+00     2.12695209e+00     3.68254886e-02
 6.15848211e+02     1.69142631e+00     1.61904257e+00     3.22598835e-02
 6.57933225e+02     1.45714609e+00     1.23380858e+00     2.82661992e-02
 7.02894188e+02     1.26269456e+00     9.41007909e-01     2.47681672e-02
 7.50927633e+02     1.09971686e+00     7.18213977e-01     2.17034972e-02
 8.02243524e+02     9.61768171e-01     5.48525133e-01     1.90181699e-02
 8.57066172e+02     8.50018862e-01     4.19220566e-01     1.66661565e-02
 9.15635217e+02     7.51680317e-01     3.20562271e-01     1.46049082e-02
 9.78206675e+02     6.64898938e-01     2.45243526e-01     1.27987267e-02
 1.04505406e+03     5.91209341e-01     1.87717687e-01     1.12165412e-02
 1.11646957e+03     5.26891709e-01     1.43742426e-01     9.82997793e-03
 1.19276538e+03     4.69375316e-01     1.10100252e-01     8.61448222e-03
 1.27427499e+03     4.17894163e-01     8.43608100e-02     7.54942374e-03
 1.36135469e+03     3.72107029e-01     6.46563294e-02     6.61605291e-03
 1.45438513e+03     3.31082389e-01     4.95657418e-02     5.79805378e-03
 1.55377296e+03     2.93755323e-01     3.79974828e-02     5.08059322e-03
 1.65995263e+03     2.59909899e-01     2.91290640e-02     4.45142592e-03
 1.77338825e+03     2.29654058e-01     2.23328490e-02     3.90003940e-03
 1.89457570e+03     2.02669192e-01     1.71238132e-02     3.41684033e-03
 2.02404468e+03     1.78665544e-01     1.31344732e-02     2.99390352e-03
 2.16236115e+03     1.57440292e-01     1.00881170e-02     2.62518156e-03
 2.31012970e+03     1.38712102e-01     7.74876389e-03     2.30181679e-03
 2.46799626e+03     1.22208940e-01     5.95218724e-03     2.01824198e-03
 2.63665090e+03     1.07699699e-01     4.57069094e-03     1.76919770e-03
 2.81683083e+03     9.49957162e-02     3.50460466e-03     1.54948558e-03
 3.00932366e+03     8.38058662e-02     2.68737616e-03     1.35707079e-03
 3.21497081e+03     7.37089797e-02     2.06237423e-03     1.18906707e-03
 3.43467119e+03     6.48855293e-02     1.58277466e-03     1.04185165e-03
 3.66938517e+03     5.71752407e-02     1.21473699e-03     9.12855211e-04
 3.92013872e+03     5.04364759e-02     9.32300848e-04     7.99825300e-04
 4.18802793e+03     4.45446256e-02     7.15543590e-04     7.00928004e-04
 4.47422380e+03     3.93901311e-02     5.49191168e-04     6.14232650e-04
 4.77997733e+03     3.48772079e-02     4.21521001e-04     5.38194296e-04
 5.10662505e+03     3.09239326e-02     3.23537427e-04     4.71521752e-04
 5.45559478e+03     2.74586090e-02     2.48336978e-04     4.13113345e-04
 5.82841194e+03     2.44313952e-02     1.90619752e-04     3.61943420e-04
 6.22670618e+03     2.17949438e-02     1.46321161e-04     3.17115949e-04
 6.65221852e+03     1.94650050e-02     1.12318044e-04     2.77840846e-04
 7.10680896e+03     1.74034728e-02     8.62179156e-05     2.43431207e-04
 7.59246459e+03     1.55766363e-02     6.61835503e-05     2.13283911e-04
 8.11130831e+03     1.39557779e-02     5.08051070e-05     1.86870987e-04
 8.66560808e+03     1.25157552e-02     3.90003764e-05     1.63729641e-04
 9.25778684e+03     1.12288199e-02     2.99389313e-05     1.43454975e-04
 9.89043313e+03     1.00764410e-02     2.29831166e-05     1.25691622e-04
 1.05663124e+04     8.95717647e-03     1.76423150e-05     1.10123901e-04
 1.12883789e+04     7.94838977e-03     1.35428940e-05     9.64854356e-05
 1.20597891e+04     7.05332880e-03     1.03965215e-05     8.45382988e-05
 1.28839149e+04     6.26386970e-03     7.98106167e-06     7.40700457e-05
 1.37643587e+04     5.56714767e-03     6.12676134e-06     6.48978173e-05
 1.47049691e+04     4.95202069e-03     4.70330355e-06     5.68615014e-05
 1.57098576e+04     4.40889384e-03     3.61047096e-06     4.98195562e-05
 1.67834169e+04     3.92872010e-03     2.77153702e-06     4.36494586e-05
 1.79303397e+04     3.50372575e-03     2.12754463e-06     3.82435659e-05
 1.91556393e+04     3.12739155e-03     1.63319433e-06     3.35072217e-05
 2.04646718e+04     2.79449317e-03     1.25371290e-06     2.93574899e-05
 2.18631593e+04     2.49903355e-03     9.62407889e-07     2.57217087e-05
 2.33572147e+04     2.23661020e-03     7.38789995e-07     2.25362185e-05
 2.49533689e+04     2.00334119e-03     5.67133431e-07     1.97452925e-05
 2.66585989e+04     1.79578675e-03     4.35378331e-07     1.73003942e-05
 2.84803587e+04     1.61100874e-03     3.34232739e-07     1.51582391e-05
 3.04266114e+04     1.45015914e-03     2.56582809e-07     1.32812607e-05
 3.25058646e+04     1.31934788e-03     1.96966388e-07     1.16364838e-05
 3.47272071e+04     1.20178681e-03     1.51201761e-07     1.01954009e-05
 3.71003486e+04     1.09601560e-03     1.16070515e-07     8.93278415e-06
 3.96356627e+04     1.00086965e-03     8.91019433e-08     7.82653583e-06
 4.23442318e+04     9.15396657e-04     6.83994587e-08     6.85729023e-06
 4.52378954e+04     8.38177464e-04     5.25071363e-08     6.00807394e-06
 4.83293024e+04     7.68339229e-04     4.03073444e-08     5.26402976e-06
 5.16319658e+04     7.05127617e-04     3.09421364e-08     4.61213074e-06
 5.51603222e+04     6.47850161e-04     2.37528899e-08     4.04096412e-06
 5.89297947e+04     5.95875402e-04     1.82340388e-08     3.54053068e-06
 6.29568604e+04     5.48805859e-04     1.39974662e-08     3.10206284e-06
 6.72591224e+04     5.06106787e-04     1.07452378e-08     2.71791118e-06
 7.18553866e+04     4.67218404e-04     8.24864950e-09     2.38131959e-06
 7.67657441e+04     4.31765947e-04     6.33212829e-09     2.08641532e-06
 8.20116592e+04     3.99398256e-04     4.86089997e-09     1.82803284e-06
 8.76160625e+04     3.69875371e-04     3.73150286e-09     1.60164229e-06
 9.36034521e+04     3.42996154e-04     2.86451373e-09     1.40330498e-06
 1.00000000e+05     3.18355192e-04     2.19896467e-09     1.46190662e-06
